[gd_scene load_steps=5 format=2]

[ext_resource path="res://shaders/transparentshader.tres" type="Material" id=1]
[ext_resource path="res://scripts/button.gd" type="Script" id=2]
[ext_resource path="res://models/button/button.obj" type="ArrayMesh" id=3]

[sub_resource type="CylinderShape" id=1]
radius = 1.55177
height = 1.18042

[node name="Button" type="MeshInstance"]
mesh = ExtResource( 3 )
material/0 = ExtResource( 1 )
material/1 = ExtResource( 1 )
script = ExtResource( 2 )

[node name="Area" type="Area" parent="."]
collision_layer = 2
collision_mask = 2

[node name="CollisionShape" type="CollisionShape" parent="Area"]
transform = Transform( 1, 0, 0, 0, 1, 0, 0, 0, 1, 0, 0.491267, 0 )
shape = SubResource( 1 )

[connection signal="body_entered" from="Area" to="." method="_on_Area_body_entered"]
