[gd_resource type="Animation" format=2]

[resource]
resource_name = "Sit"
length = 0.0166667
loop = true
tracks/0/type = "transform"
tracks/0/path = NodePath("Armature")
tracks/0/interp = 1
tracks/0/loop_wrap = true
tracks/0/imported = true
tracks/0/enabled = true
tracks/0/keys = PoolRealArray( 0, 1, -0.0453508, 0.0431511, -0.116433, 0, 0, 0, 1, 1, 1, 1, 0.0166667, 1, -0.0453508, 0.0431511, -0.116433, 0, 0, 0, 1, 1, 1, 1 )
tracks/1/type = "transform"
tracks/1/path = NodePath("Armature/Skeleton:shoulder.L")
tracks/1/interp = 1
tracks/1/loop_wrap = true
tracks/1/imported = true
tracks/1/enabled = true
tracks/1/keys = PoolRealArray( 0, 1, 8.9407e-08, 1.19209e-06, 7.35745e-08, -1.39698e-09, 2.7343e-08, 1.86264e-09, 1, 1, 1, 1, 0.0166667, 1, 8.9407e-08, 1.19209e-06, 7.35745e-08, -1.39698e-09, 2.7343e-08, 1.86264e-09, 1, 1, 1, 1 )
tracks/2/type = "transform"
tracks/2/path = NodePath("Armature/Skeleton:upper_arm.L")
tracks/2/interp = 1
tracks/2/loop_wrap = true
tracks/2/imported = true
tracks/2/enabled = true
tracks/2/keys = PoolRealArray( 0, 1, 5.96046e-08, 0, -1.19209e-07, 0.372966, -0.558524, -0.222036, 0.706858, 1, 1, 1, 0.0166667, 1, 5.96046e-08, 0, -1.19209e-07, 0.372966, -0.558524, -0.222036, 0.706858, 1, 1, 1 )
tracks/3/type = "transform"
tracks/3/path = NodePath("Armature/Skeleton:forearm.L")
tracks/3/interp = 1
tracks/3/loop_wrap = true
tracks/3/imported = true
tracks/3/enabled = true
tracks/3/keys = PoolRealArray( 0, 1, 1.01328e-06, 6.25849e-07, 2.38419e-07, 0.231245, 0.333879, -0.423079, 0.809972, 1, 1, 1, 0.0166667, 1, 1.01328e-06, 6.25849e-07, 2.38419e-07, 0.231245, 0.333879, -0.423079, 0.809972, 1, 1, 1 )
tracks/4/type = "transform"
tracks/4/path = NodePath("Armature/Skeleton:hand.L")
tracks/4/interp = 1
tracks/4/loop_wrap = true
tracks/4/imported = true
tracks/4/enabled = true
tracks/4/keys = PoolRealArray( 0, 1, -2.17557e-06, 7.30157e-07, 1.19209e-07, -2.6077e-08, 2.23517e-08, -5.86733e-08, 1, 1, 1, 1, 0.0166667, 1, -2.17557e-06, 7.30157e-07, 1.19209e-07, -2.6077e-08, 2.23517e-08, -5.86733e-08, 1, 1, 1, 1 )
tracks/5/type = "transform"
tracks/5/path = NodePath("Armature/Skeleton:shoulder.R")
tracks/5/interp = 1
tracks/5/loop_wrap = true
tracks/5/imported = true
tracks/5/enabled = true
tracks/5/keys = PoolRealArray( 0, 1, -8.9407e-08, 8.9407e-07, -2.14204e-08, -2.32831e-10, -1.21217e-08, 2.79397e-09, 1, 1, 1, 1, 0.0166667, 1, -8.9407e-08, 8.9407e-07, -2.14204e-08, -2.32831e-10, -1.21217e-08, 2.79397e-09, 1, 1, 1, 1 )
tracks/6/type = "transform"
tracks/6/path = NodePath("Armature/Skeleton:upper_arm.R")
tracks/6/interp = 1
tracks/6/loop_wrap = true
tracks/6/imported = true
tracks/6/enabled = true
tracks/6/keys = PoolRealArray( 0, 1, 1.2517e-06, 2.68221e-07, -1.19209e-07, 0.626819, 0.331973, 0.468613, 0.526587, 1, 1, 1, 0.0166667, 1, 1.2517e-06, 2.68221e-07, -1.19209e-07, 0.626819, 0.331973, 0.468613, 0.526587, 1, 1, 1 )
tracks/7/type = "transform"
tracks/7/path = NodePath("Armature/Skeleton:forearm.R")
tracks/7/interp = 1
tracks/7/loop_wrap = true
tracks/7/imported = true
tracks/7/enabled = true
tracks/7/keys = PoolRealArray( 0, 1, -2.74181e-06, 8.9407e-08, -5.96046e-07, 0.100533, -0.524283, 0.0945728, 0.840284, 1, 1, 1, 0.0166667, 1, -2.74181e-06, 8.9407e-08, -5.96046e-07, 0.100533, -0.524283, 0.0945728, 0.840284, 1, 1, 1 )
tracks/8/type = "transform"
tracks/8/path = NodePath("Armature/Skeleton:hand.R")
tracks/8/interp = 1
tracks/8/loop_wrap = true
tracks/8/imported = true
tracks/8/enabled = true
tracks/8/keys = PoolRealArray( 0, 1, 3.23355e-06, -1.3411e-07, -4.76837e-07, -2.6077e-08, -8.32667e-17, 7.45058e-09, 1, 1, 1, 1, 0.0166667, 1, 3.23355e-06, -1.3411e-07, -4.76837e-07, -2.6077e-08, -8.32667e-17, 7.45058e-09, 1, 1, 1, 1 )
tracks/9/type = "transform"
tracks/9/path = NodePath("Armature/Skeleton:thigh.L")
tracks/9/interp = 1
tracks/9/loop_wrap = true
tracks/9/imported = true
tracks/9/enabled = true
tracks/9/keys = PoolRealArray( 0, 1, 1.19209e-07, 0, 7.15256e-07, -0.570738, -0.00744149, 0.203079, 0.795589, 1, 1, 1, 0.0166667, 1, 1.19209e-07, 0, 7.15256e-07, -0.570738, -0.00744149, 0.203079, 0.795589, 1, 1, 1 )
tracks/10/type = "transform"
tracks/10/path = NodePath("Armature/Skeleton:shin.L")
tracks/10/interp = 1
tracks/10/loop_wrap = true
tracks/10/imported = true
tracks/10/enabled = true
tracks/10/keys = PoolRealArray( 0, 1, 7.45058e-08, 8.9407e-08, -4.76837e-07, 0.713142, -0.268479, 0.0515667, 0.645514, 1, 1, 1, 0.0166667, 1, 7.45058e-08, 8.9407e-08, -4.76837e-07, 0.713142, -0.268479, 0.0515667, 0.645514, 1, 1, 1 )
tracks/11/type = "transform"
tracks/11/path = NodePath("Armature/Skeleton:foot.L")
tracks/11/interp = 1
tracks/11/loop_wrap = true
tracks/11/imported = true
tracks/11/enabled = true
tracks/11/keys = PoolRealArray( 0, 1, 5.96046e-08, -4.76837e-07, 3.57628e-07, 7.45058e-08, 4.47035e-08, 2.23517e-08, 1, 1, 1, 1, 0.0166667, 1, 5.96046e-08, -4.76837e-07, 3.57628e-07, 7.45058e-08, 4.47035e-08, 2.23517e-08, 1, 1, 1, 1 )
tracks/12/type = "transform"
tracks/12/path = NodePath("Armature/Skeleton:toe.L")
tracks/12/interp = 1
tracks/12/loop_wrap = true
tracks/12/imported = true
tracks/12/enabled = true
tracks/12/keys = PoolRealArray( 0, 1, 2.4825e-07, -1.19209e-07, -2.38419e-07, 1.49012e-08, 3.06969e-09, 4.60445e-08, 1, 1, 1, 1, 0.0166667, 1, 2.4825e-07, -1.19209e-07, -2.38419e-07, 1.49012e-08, 3.06969e-09, 4.60445e-08, 1, 1, 1, 1 )
tracks/13/type = "transform"
tracks/13/path = NodePath("Armature/Skeleton:heel.02.L")
tracks/13/interp = 1
tracks/13/loop_wrap = true
tracks/13/imported = true
tracks/13/enabled = true
tracks/13/keys = PoolRealArray( 0, 1, -4.47035e-08, -5.96046e-08, 2.38419e-07, 1.11401e-08, -1.86856e-08, 2.0816e-16, 1, 1, 1, 1, 0.0166667, 1, -4.47035e-08, -5.96046e-08, 2.38419e-07, 1.11401e-08, -1.86856e-08, 2.0816e-16, 1, 1, 1, 1 )
tracks/14/type = "transform"
tracks/14/path = NodePath("Armature/Skeleton:thigh.R")
tracks/14/interp = 1
tracks/14/loop_wrap = true
tracks/14/imported = true
tracks/14/enabled = true
tracks/14/keys = PoolRealArray( 0, 1, 5.96046e-08, -5.96046e-08, 5.96046e-08, -0.550523, 0.0228598, -0.164008, 0.818232, 1, 1, 1, 0.0166667, 1, 5.96046e-08, -5.96046e-08, 5.96046e-08, -0.550523, 0.0228598, -0.164008, 0.818232, 1, 1, 1 )
tracks/15/type = "transform"
tracks/15/path = NodePath("Armature/Skeleton:shin.R")
tracks/15/interp = 1
tracks/15/loop_wrap = true
tracks/15/imported = true
tracks/15/enabled = true
tracks/15/keys = PoolRealArray( 0, 1, -3.27826e-07, -2.38419e-07, 4.76837e-07, 0.747794, 0.0792102, -0.0239047, 0.658755, 1, 1, 1, 0.0166667, 1, -3.27826e-07, -2.38419e-07, 4.76837e-07, 0.747794, 0.0792102, -0.0239047, 0.658755, 1, 1, 1 )
tracks/16/type = "transform"
tracks/16/path = NodePath("Armature/Skeleton:foot.R")
tracks/16/interp = 1
tracks/16/loop_wrap = true
tracks/16/imported = true
tracks/16/enabled = true
tracks/16/keys = PoolRealArray( 0, 1, -1.19209e-07, -2.38419e-07, 1.19209e-07, 1.11022e-16, -7.45058e-09, -1.49012e-08, 1, 1, 1, 1, 0.0166667, 1, -1.19209e-07, -2.38419e-07, 1.19209e-07, 1.11022e-16, -7.45058e-09, -1.49012e-08, 1, 1, 1, 1 )
tracks/17/type = "transform"
tracks/17/path = NodePath("Armature/Skeleton:toe.R")
tracks/17/interp = 1
tracks/17/loop_wrap = true
tracks/17/imported = true
tracks/17/enabled = true
tracks/17/keys = PoolRealArray( 0, 1, -2.01748e-07, 1.19209e-07, -2.38419e-07, 2.98023e-08, -1.45734e-08, -1.9297e-08, 1, 1, 1, 1, 0.0166667, 1, -2.01748e-07, 1.19209e-07, -2.38419e-07, 2.98023e-08, -1.45734e-08, -1.9297e-08, 1, 1, 1, 1 )
tracks/18/type = "transform"
tracks/18/path = NodePath("Armature/Skeleton:heel.02.R")
tracks/18/interp = 1
tracks/18/loop_wrap = true
tracks/18/imported = true
tracks/18/enabled = true
tracks/18/keys = PoolRealArray( 0, 1, -1.04308e-07, 1.78814e-07, 2.08616e-07, 3.68956e-09, 2.98614e-08, 1.49012e-08, 1, 1, 1, 1, 0.0166667, 1, -1.04308e-07, 1.78814e-07, 2.08616e-07, 3.68956e-09, 2.98614e-08, 1.49012e-08, 1, 1, 1, 1 )
tracks/19/type = "transform"
tracks/19/path = NodePath("Armature/Skeleton:spine")
tracks/19/interp = 1
tracks/19/loop_wrap = true
tracks/19/imported = true
tracks/19/enabled = true
tracks/19/keys = PoolRealArray( 0, 1, 0.345978, 1.47676, 2.63125, -0.0708062, 0.0061918, 0.00612509, 0.997452, 1, 1, 1, 0.0166667, 1, 0.345978, 1.47676, 2.63125, -0.0708062, 0.0061918, 0.00612509, 0.997452, 1, 1, 1 )
tracks/20/type = "transform"
tracks/20/path = NodePath("Armature/Skeleton:spine.001")
tracks/20/interp = 1
tracks/20/loop_wrap = true
tracks/20/imported = true
tracks/20/enabled = true
tracks/20/keys = PoolRealArray( 0, 1, 7.91624e-09, 1.11759e-07, -7.15256e-07, 7.45058e-09, 3.53833e-10, -1.27812e-11, 1, 1, 1, 1, 0.0166667, 1, 7.91624e-09, 1.11759e-07, -7.15256e-07, 7.45058e-09, 3.53833e-10, -1.27812e-11, 1, 1, 1, 1 )
tracks/21/type = "transform"
tracks/21/path = NodePath("Armature/Skeleton:spine.002")
tracks/21/interp = 1
tracks/21/loop_wrap = true
tracks/21/imported = true
tracks/21/enabled = true
tracks/21/keys = PoolRealArray( 0, 1, -8.3819e-09, -4.47035e-07, 4.76837e-07, -1.49012e-08, 3.46275e-10, -1.21758e-10, 1, 1, 1, 1, 0.0166667, 1, -8.3819e-09, -4.47035e-07, 4.76837e-07, -1.49012e-08, 3.46275e-10, -1.21758e-10, 1, 1, 1, 1 )
tracks/22/type = "transform"
tracks/22/path = NodePath("Armature/Skeleton:spine.003")
tracks/22/interp = 1
tracks/22/loop_wrap = true
tracks/22/imported = true
tracks/22/enabled = true
tracks/22/keys = PoolRealArray( 0, 1, 2.71247e-08, 2.38419e-07, 1.78814e-06, 1.49012e-08, 4.40874e-10, 2.50981e-11, 1, 1, 1, 1, 0.0166667, 1, 2.71247e-08, 2.38419e-07, 1.78814e-06, 1.49012e-08, 4.40874e-10, 2.50981e-11, 1, 1, 1, 1 )
tracks/23/type = "transform"
tracks/23/path = NodePath("Armature/Skeleton:spine.004")
tracks/23/interp = 1
tracks/23/loop_wrap = true
tracks/23/imported = true
tracks/23/enabled = true
tracks/23/keys = PoolRealArray( 0, 1, -4.70318e-08, -4.47035e-08, -2.6226e-06, 4.65661e-09, -3.09044e-10, -9.6266e-11, 1, 1, 1, 1, 0.0166667, 1, -4.70318e-08, -4.47035e-08, -2.6226e-06, 4.65661e-09, -3.09044e-10, -9.6266e-11, 1, 1, 1, 1 )
tracks/24/type = "transform"
tracks/24/path = NodePath("Armature/Skeleton:spine.005")
tracks/24/interp = 1
tracks/24/loop_wrap = true
tracks/24/imported = true
tracks/24/enabled = true
tracks/24/keys = PoolRealArray( 0, 1, -1.72298e-08, 5.73695e-07, 1.20699e-06, -2.98023e-08, -4.4556e-10, -2.00068e-10, 1, 1, 1, 1, 0.0166667, 1, -1.72298e-08, 5.73695e-07, 1.20699e-06, -2.98023e-08, -4.4556e-10, -2.00068e-10, 1, 1, 1, 1 )
tracks/25/type = "transform"
tracks/25/path = NodePath("Armature/Skeleton:head")
tracks/25/interp = 1
tracks/25/loop_wrap = true
tracks/25/imported = true
tracks/25/enabled = true
tracks/25/keys = PoolRealArray( 0, 1, 6.16966e-09, 1.51992e-06, -7.15256e-07, 0.119866, 0.0143332, -0.0462626, 0.991608, 1, 1, 1, 0.0166667, 1, 6.16966e-09, 1.51992e-06, -7.15256e-07, 0.119866, 0.0143332, -0.0462626, 0.991608, 1, 1, 1 )
