[gd_resource type="Animation" format=2]

[resource]
resource_name = "Sit_Intro2"
length = 2.0
tracks/0/type = "transform"
tracks/0/path = NodePath("Armature")
tracks/0/interp = 1
tracks/0/loop_wrap = true
tracks/0/imported = true
tracks/0/enabled = true
tracks/0/keys = PoolRealArray( 0, 1, -0.0453508, 0.0431511, -0.116433, 0, 0, 0, 1, 1, 1, 1, 2, 1, -0.0453508, 0.0431511, -0.116433, 0, 0, 0, 1, 1, 1, 1 )
tracks/1/type = "transform"
tracks/1/path = NodePath("Armature/Skeleton:shoulder.L")
tracks/1/interp = 1
tracks/1/loop_wrap = true
tracks/1/imported = true
tracks/1/enabled = true
tracks/1/keys = PoolRealArray( 0, 1, 5.96046e-08, 1.43051e-06, 1.95578e-08, -6.98492e-10, 2.73139e-08, -1.86264e-09, 1, 1, 1, 1, 2, 1, 8.9407e-08, 1.19209e-06, 7.35745e-08, -1.39698e-09, 2.7343e-08, 1.86264e-09, 1, 1, 1, 1 )
tracks/2/type = "transform"
tracks/2/path = NodePath("Armature/Skeleton:upper_arm.L")
tracks/2/interp = 1
tracks/2/loop_wrap = true
tracks/2/imported = true
tracks/2/enabled = true
tracks/2/keys = PoolRealArray( 0, 1, -7.7486e-07, 0, -2.38419e-07, 0.182566, -0.649527, -0.514205, 0.529507, 1, 1, 1, 0.05, 1, -2.98023e-07, -2.98023e-08, -2.38419e-07, 0.182714, -0.649499, -0.514024, 0.529666, 1, 1, 1, 0.0666667, 1, -5.96046e-08, 0, -3.57628e-07, 0.18283, -0.649477, -0.513882, 0.529791, 1, 1, 1, 0.0833333, 1, -1.13249e-06, 1.78814e-07, 0, 0.18298, -0.649449, -0.513699, 0.529951, 1, 1, 1, 0.1, 1, -8.9407e-07, 5.96046e-08, -2.38419e-07, 0.183163, -0.649414, -0.513475, 0.530147, 1, 1, 1, 0.116667, 1, -2.98023e-07, 2.98023e-08, -2.38419e-07, 0.183379, -0.649373, -0.513209, 0.53038, 1, 1, 1, 0.15, 1, -1.78814e-07, 5.96046e-08, -1.19209e-07, 0.183913, -0.649271, -0.512556, 0.530951, 1, 1, 1, 0.166667, 1, -1.19209e-07, 2.98023e-08, -2.38419e-07, 0.184229, -0.649211, -0.512168, 0.53129, 1, 1, 1, 1, 1, 5.96046e-08, 1.78814e-07, -1.19209e-07, 0.209268, -0.643588, -0.480587, 0.557708, 1, 1, 1, 1.03333, 1, -2.98023e-07, 1.78814e-07, -2.38419e-07, 0.209117, -0.643627, -0.480782, 0.557551, 1, 1, 1, 1.05, 1, -1.01328e-06, 1.78814e-07, -4.76837e-07, 0.208928, -0.643675, -0.481027, 0.557355, 1, 1, 1, 1.06667, 1, -2.98023e-07, 0, -2.38419e-07, 0.208663, -0.643743, -0.481371, 0.557079, 1, 1, 1, 1.1, 1, -3.57628e-07, 5.96046e-08, -3.57628e-07, 0.207902, -0.643937, -0.482356, 0.556287, 1, 1, 1, 1.11667, 1, -9.53674e-07, 8.9407e-08, -1.19209e-07, 0.207406, -0.644062, -0.482997, 0.555771, 1, 1, 1, 1.73333, 1, -2.98023e-07, 2.98023e-08, -2.38419e-07, 0.156228, -0.653625, -0.545466, 0.500833, 1, 1, 1, 1.75, 1, -5.36442e-07, 1.49012e-07, 0, -0.155034, 0.653771, 0.54684, -0.499513, 1, 1, 1, 1.93333, 1, -5.96046e-08, 1.19209e-07, -1.19209e-07, -0.146805, 0.654683, 0.556212, -0.490374, 1, 1, 1, 1.95, 1, -6.55651e-07, 1.78814e-07, -2.38419e-07, -0.146528, 0.654711, 0.556523, -0.490066, 1, 1, 1, 1.96667, 1, -5.36442e-07, 0, -1.19209e-07, -0.146332, 0.654731, 0.556745, -0.489846, 1, 1, 1, 2, 1, 5.96046e-08, 0, -1.19209e-07, -0.146175, 0.654747, 0.556922, -0.489671, 1, 1, 1 )
tracks/3/type = "transform"
tracks/3/path = NodePath("Armature/Skeleton:forearm.L")
tracks/3/interp = 1
tracks/3/loop_wrap = true
tracks/3/imported = true
tracks/3/enabled = true
tracks/3/keys = PoolRealArray( 0, 1, 5.36442e-07, 4.76837e-07, 1.07288e-06, 0.254092, 0.673199, -0.390566, 0.574193, 1, 1, 1, 2, 1, -1.78814e-07, 7.15256e-07, 1.19209e-07, 0.254092, 0.673199, -0.390566, 0.574193, 1, 1, 1 )
tracks/4/type = "transform"
tracks/4/path = NodePath("Armature/Skeleton:hand.L")
tracks/4/interp = 1
tracks/4/loop_wrap = true
tracks/4/imported = true
tracks/4/enabled = true
tracks/4/keys = PoolRealArray( 0, 1, -2.36928e-06, 7.7486e-07, 2.38419e-07, -3.95517e-16, -7.45058e-09, -2.51457e-08, 1, 1, 1, 1, 2, 1, -1.95205e-06, 5.81145e-07, 1.19209e-07, -7.45058e-09, 3.72529e-08, -2.98023e-08, 1, 1, 1, 1 )
tracks/5/type = "transform"
tracks/5/path = NodePath("Armature/Skeleton:shoulder.R")
tracks/5/interp = 1
tracks/5/loop_wrap = true
tracks/5/imported = true
tracks/5/enabled = true
tracks/5/keys = PoolRealArray( 0, 1, -2.98023e-08, 1.2517e-06, 2.04891e-08, 2.32831e-10, -1.21217e-08, 2.79397e-09, 1, 1, 1, 1, 2, 1, -8.9407e-08, 8.9407e-07, -2.14204e-08, -2.32831e-10, -1.21217e-08, 2.79397e-09, 1, 1, 1, 1 )
tracks/6/type = "transform"
tracks/6/path = NodePath("Armature/Skeleton:upper_arm.R")
tracks/6/interp = 1
tracks/6/loop_wrap = true
tracks/6/imported = true
tracks/6/enabled = true
tracks/6/keys = PoolRealArray( 0, 1, 1.54972e-06, 2.08616e-07, 0, 0.629565, 0.325596, 0.461669, 0.533382, 1, 1, 1, 0.0166667, 1, 1.3113e-06, 2.68221e-07, 0, 0.63001, 0.325247, 0.461572, 0.533154, 1, 1, 1, 0.0333333, 1, 8.34465e-07, 5.96046e-08, -1.19209e-07, 0.631357, 0.324186, 0.461271, 0.532467, 1, 1, 1, 0.05, 1, 1.43051e-06, 2.68221e-07, -1.19209e-07, 0.633618, 0.322393, 0.460751, 0.53132, 1, 1, 1, 0.0666667, 1, 1.43051e-06, 3.27826e-07, 0, 0.636795, 0.319851, 0.459995, 0.52971, 1, 1, 1, 0.0833333, 1, 1.37091e-06, 2.68221e-07, -2.38419e-07, 0.640882, 0.316548, 0.458984, 0.527638, 1, 1, 1, 0.116667, 1, 8.34465e-07, 2.08616e-07, 1.19209e-07, 0.651695, 0.307623, 0.45611, 0.522136, 1, 1, 1, 0.216667, 1, 1.66893e-06, 2.68221e-07, 0, 0.70094, 0.263377, 0.439258, 0.496355, 1, 1, 1, 0.283333, 1, 7.15256e-07, 1.49012e-07, 0, 0.739497, 0.223699, 0.420645, 0.475563, 1, 1, 1, 0.333333, 1, 1.54972e-06, 2.68221e-07, 0, 0.76598, 0.192836, 0.403669, 0.461671, 1, 1, 1, 0.366667, 1, 1.54972e-06, 2.68221e-07, 0, 0.781158, 0.173221, 0.391509, 0.454431, 1, 1, 1, 0.4, 1, 1.13249e-06, 2.08616e-07, 0, 0.793927, 0.155085, 0.37906, 0.44938, 1, 1, 1, 0.433333, 1, 1.37091e-06, 2.38419e-07, 0, 0.804158, 0.138834, 0.366597, 0.446834, 1, 1, 1, 0.45, 1, 1.43051e-06, 2.68221e-07, -1.19209e-07, 0.808322, 0.131496, 0.360429, 0.44656, 1, 1, 1, 0.466667, 1, 1.3113e-06, 1.49012e-07, 1.19209e-07, 0.81186, 0.124708, 0.354328, 0.44697, 1, 1, 1, 0.483334, 1, 1.37091e-06, 2.98023e-07, -1.19209e-07, 0.814787, 0.11848, 0.34831, 0.448068, 1, 1, 1, 0.5, 1, 1.19209e-06, 2.38419e-07, 1.19209e-07, 0.817107, 0.112433, 0.341941, 0.450301, 1, 1, 1, 0.516667, 1, 9.53674e-07, 2.68221e-07, 1.19209e-07, 0.818793, 0.106187, 0.334767, 0.454129, 1, 1, 1, 0.533333, 1, 1.90735e-06, 2.98023e-07, 0, 0.819798, 0.0997472, 0.326777, 0.459563, 1, 1, 1, 0.55, 1, 9.53674e-07, 1.49012e-07, 1.19209e-07, 0.820072, 0.0931239, 0.317963, 0.466594, 1, 1, 1, 0.566667, 1, 1.19209e-06, 1.78814e-07, 1.19209e-07, 0.819558, 0.0863294, 0.308326, 0.475191, 1, 1, 1, 0.6, 1, 2.14577e-06, 2.98023e-07, -1.19209e-07, 0.815944, 0.0723029, 0.286639, 0.496835, 1, 1, 1, 0.633333, 1, 7.15256e-07, 2.68221e-07, 1.19209e-07, 0.808556, 0.0578782, 0.261979, 0.523693, 1, 1, 1, 0.683333, 1, 1.78814e-06, 2.98023e-07, 0, 0.790039, 0.0362069, 0.220729, 0.570794, 1, 1, 1, 0.75, 1, 1.43051e-06, 2.68221e-07, 0, 0.753566, 0.00950337, 0.163193, 0.636723, 1, 1, 1, 0.866666, 1, 1.2517e-06, 8.9407e-08, 0, 0.683715, -0.0229335, 0.0826355, 0.724692, 1, 1, 1, 0.9, 1, 2.14577e-06, 4.47035e-07, 0, 0.668714, -0.02818, 0.0682774, 0.739842, 1, 1, 1, 0.933333, 1, 1.90735e-06, 3.27826e-07, -1.19209e-07, 0.657447, -0.0317612, 0.0582072, 0.750578, 1, 1, 1, 0.95, 1, 1.19209e-06, 1.78814e-07, 1.19209e-07, 0.653323, -0.0329723, 0.0547525, 0.754377, 1, 1, 1, 0.966666, 1, 1.3113e-06, 3.57628e-07, -1.19209e-07, 0.650232, -0.0338218, 0.0523236, 0.757177, 1, 1, 1, 0.983333, 1, 1.66893e-06, 1.19209e-07, -2.38419e-07, 0.648179, -0.0343275, 0.0508965, 0.759009, 1, 1, 1, 1, 1, 1.72853e-06, 3.27826e-07, 0, 0.64716, -0.0345055, 0.0504453, 0.7599, 1, 1, 1, 1.01667, 1, 1.07288e-06, 1.49012e-07, 1.19209e-07, 0.646726, -0.0343048, 0.0507335, 0.76026, 1, 1, 1, 1.03333, 1, 8.34465e-07, 1.78814e-07, 1.19209e-07, 0.646433, -0.033661, 0.0515453, 0.760483, 1, 1, 1, 1.05, 1, 1.72853e-06, 2.38419e-07, -1.19209e-07, 0.64628, -0.0325694, 0.0528856, 0.760568, 1, 1, 1, 1.06667, 1, 3.57628e-07, 5.96046e-08, 2.38419e-07, 0.646268, -0.0310255, 0.0547599, 0.76051, 1, 1, 1, 1.08333, 1, 1.37091e-06, 3.8743e-07, -1.19209e-07, 0.646395, -0.0290248, 0.0571728, 0.760304, 1, 1, 1, 1.11667, 1, 1.66893e-06, 2.68221e-07, 0, 0.647048, -0.0236374, 0.06363, 0.759422, 1, 1, 1, 1.21667, 1, 1.19209e-06, 2.68221e-07, 0, 0.651726, 0.00377185, 0.0961652, 0.752324, 1, 1, 1, 1.43333, 1, 2.26498e-06, 3.57628e-07, -1.19209e-07, 0.663866, 0.114759, 0.225494, 0.70375, 1, 1, 1, 1.61667, 1, 3.57628e-07, 5.96046e-08, 1.19209e-07, 0.656431, 0.226824, 0.352718, 0.627088, 1, 1, 1, 2, 1, 1.2517e-06, 2.68221e-07, -1.19209e-07, 0.626819, 0.331973, 0.468613, 0.526587, 1, 1, 1 )
tracks/7/type = "transform"
tracks/7/path = NodePath("Armature/Skeleton:forearm.R")
tracks/7/interp = 1
tracks/7/loop_wrap = true
tracks/7/imported = true
tracks/7/enabled = true
tracks/7/keys = PoolRealArray( 0, 1, -2.92063e-06, -8.9407e-08, -5.96046e-07, 0.0790038, -0.568747, 0.103357, 0.812159, 1, 1, 1, 0.0166667, 1, -2.98023e-06, 1.19209e-07, 3.57628e-07, 0.0789574, -0.568857, 0.103951, 0.812011, 1, 1, 1, 0.0333333, 1, -3.03984e-06, 2.98023e-08, -7.15256e-07, 0.0788134, -0.569189, 0.105745, 0.81156, 1, 1, 1, 0.05, 1, -2.92063e-06, -2.98023e-08, -5.96046e-07, 0.0785633, -0.569742, 0.10875, 0.810799, 1, 1, 1, 0.0666667, 1, -3.15905e-06, -5.96046e-08, -1.19209e-07, 0.0781984, -0.57051, 0.112971, 0.809717, 1, 1, 1, 0.0833333, 1, -2.80142e-06, -1.49012e-07, -3.57628e-07, 0.0777088, -0.571481, 0.118399, 0.808302, 1, 1, 1, 0.133333, 1, -2.86102e-06, 2.98023e-08, 1.19209e-07, 0.075394, -0.575443, 0.141616, 0.801952, 1, 1, 1, 0.283333, 1, -2.74181e-06, -3.27826e-07, 5.96046e-07, 0.0593411, -0.589599, 0.249803, 0.7658, 1, 1, 1, 0.35, 1, -3.15905e-06, 2.38419e-07, -2.38419e-07, 0.04831, -0.593259, 0.293627, 0.747993, 1, 1, 1, 0.383333, 1, -2.98023e-06, 2.98023e-07, -4.76837e-07, 0.0422945, -0.594318, 0.309961, 0.740892, 1, 1, 1, 0.4, 1, -3.27826e-06, -8.9407e-08, -7.15256e-07, 0.0392147, -0.594698, 0.316455, 0.738006, 1, 1, 1, 0.416667, 1, -3.15905e-06, 1.19209e-07, -2.38419e-07, 0.0361036, -0.594996, 0.321783, 0.735617, 1, 1, 1, 0.433333, 1, -2.86102e-06, 1.78814e-07, -1.19209e-07, 0.0329719, -0.595224, 0.325927, 0.733752, 1, 1, 1, 0.45, 1, -3.03984e-06, -1.78814e-07, -4.76837e-07, 0.0298287, -0.595392, 0.328883, 0.732431, 1, 1, 1, 0.466667, 1, -2.68221e-06, -5.96046e-08, -4.76837e-07, 0.0266816, -0.595507, 0.330656, 0.73166, 1, 1, 1, 0.483334, 1, -3.27826e-06, -3.27826e-07, -7.15256e-07, 0.0235367, -0.595574, 0.33126, 0.73144, 1, 1, 1, 0.5, 1, -3.33786e-06, 4.17233e-07, -8.34465e-07, 0.0202285, -0.595065, 0.330776, 0.732172, 1, 1, 1, 0.516667, 1, -2.80142e-06, 1.19209e-07, -2.38419e-07, 0.0165849, -0.593432, 0.329263, 0.734268, 1, 1, 1, 0.533333, 1, -3.15905e-06, 2.08616e-07, -7.15256e-07, 0.012603, -0.590649, 0.3267, 0.737728, 1, 1, 1, 0.55, 1, -3.15905e-06, -6.85453e-07, -9.53674e-07, 0.00828311, -0.586684, 0.323066, 0.742537, 1, 1, 1, 0.583333, 1, -2.68221e-06, -2.08616e-07, 1.19209e-07, -0.00135136, -0.575094, 0.312527, 0.756037, 1, 1, 1, 0.633333, 1, -3.51667e-06, 1.19209e-07, -5.96046e-07, -0.0180676, -0.548279, 0.288516, 0.784744, 1, 1, 1, 0.733333, 1, -2.92063e-06, -5.36442e-07, -3.57628e-07, -0.05585, -0.464555, 0.21612, 0.856949, 1, 1, 1, 0.866666, 1, -2.563e-06, 5.96046e-08, -1.19209e-07, -0.0959164, -0.343258, 0.116325, 0.927061, 1, 1, 1, 0.9, 1, -2.563e-06, -1.49012e-07, -1.19209e-07, -0.101742, -0.322344, 0.0996048, 0.935853, 1, 1, 1, 0.916666, 1, -2.74181e-06, -2.38419e-07, -1.19209e-07, -0.10398, -0.314029, 0.0929926, 0.939109, 1, 1, 1, 0.933333, 1, -2.68221e-06, -8.9407e-08, -1.19209e-07, -0.105781, -0.30721, 0.0875841, 0.94168, 1, 1, 1, 0.95, 1, -2.80142e-06, 8.9407e-08, -2.38419e-07, -0.107158, -0.301909, 0.0833895, 0.943618, 1, 1, 1, 0.966666, 1, -2.26498e-06, -1.49012e-07, 1.19209e-07, -0.108125, -0.298136, 0.080408, 0.944965, 1, 1, 1, 0.983333, 1, -3.27826e-06, -1.19209e-07, -4.76837e-07, -0.108696, -0.295884, 0.0786304, 0.945756, 1, 1, 1, 1, 1, -2.6226e-06, 0, -2.38419e-07, -0.108884, -0.295138, 0.0780419, 0.946017, 1, 1, 1, 1.01667, 1, -3.03984e-06, 3.27826e-07, -2.38419e-07, -0.10876, -0.295287, 0.0780546, 0.945983, 1, 1, 1, 1.03333, 1, -2.68221e-06, -2.98023e-07, -1.19209e-07, -0.108387, -0.295736, 0.0780925, 0.945883, 1, 1, 1, 1.05, 1, -2.68221e-06, -6.25849e-07, -2.38419e-07, -0.107762, -0.296488, 0.0781561, 0.945713, 1, 1, 1, 1.06667, 1, -1.96695e-06, -4.76837e-07, 4.76837e-07, -0.106884, -0.297544, 0.0782452, 0.945474, 1, 1, 1, 1.08333, 1, -2.14577e-06, -2.68221e-07, 1.19209e-07, -0.105752, -0.298904, 0.0783599, 0.945163, 1, 1, 1, 1.11667, 1, -2.38419e-06, 3.57628e-07, -1.19209e-07, -0.102719, -0.302539, 0.0786657, 0.944315, 1, 1, 1, 1.56667, 1, -2.80142e-06, 8.9407e-08, -2.38419e-07, 0.0187623, -0.440235, 0.0892527, 0.893239, 1, 1, 1, 2, 1, -2.74181e-06, 8.9407e-08, -5.96046e-07, 0.100533, -0.524283, 0.0945728, 0.840284, 1, 1, 1 )
tracks/8/type = "transform"
tracks/8/path = NodePath("Armature/Skeleton:hand.R")
tracks/8/interp = 1
tracks/8/loop_wrap = true
tracks/8/imported = true
tracks/8/enabled = true
tracks/8/keys = PoolRealArray( 0, 1, 3.02494e-06, -3.8743e-07, -1.07288e-06, -2.23517e-08, 7.45058e-09, 5.58793e-09, 1, 1, 1, 1, 2, 1, 3.23355e-06, -1.3411e-07, -4.76837e-07, -2.6077e-08, -8.32667e-17, 7.45058e-09, 1, 1, 1, 1 )
tracks/9/type = "transform"
tracks/9/path = NodePath("Armature/Skeleton:thigh.L")
tracks/9/interp = 1
tracks/9/loop_wrap = true
tracks/9/imported = true
tracks/9/enabled = true
tracks/9/keys = PoolRealArray( 0, 1, 1.19209e-07, 0, 7.15256e-07, -0.534103, -0.0147906, 0.201125, 0.821014, 1, 1, 1, 2, 1, 1.19209e-07, 0, 7.15256e-07, -0.534103, -0.0147906, 0.201125, 0.821014, 1, 1, 1 )
tracks/10/type = "transform"
tracks/10/path = NodePath("Armature/Skeleton:shin.L")
tracks/10/interp = 1
tracks/10/loop_wrap = true
tracks/10/imported = true
tracks/10/enabled = true
tracks/10/keys = PoolRealArray( 0, 1, 1.04308e-07, -5.96046e-08, -4.76837e-07, 0.713142, -0.268479, 0.0515667, 0.645514, 1, 1, 1, 2, 1, 1.04308e-07, -5.96046e-08, -4.76837e-07, 0.713142, -0.268479, 0.0515667, 0.645514, 1, 1, 1 )
tracks/11/type = "transform"
tracks/11/path = NodePath("Armature/Skeleton:foot.L")
tracks/11/interp = 1
tracks/11/loop_wrap = true
tracks/11/imported = true
tracks/11/enabled = true
tracks/11/keys = PoolRealArray( 0, 1, 0, 4.76837e-07, -1.19209e-07, 1.49012e-08, 1.11759e-08, 1.49012e-08, 1, 1, 1, 1, 2, 1, 0, 4.76837e-07, -1.19209e-07, 1.49012e-08, 1.11759e-08, 1.49012e-08, 1, 1, 1, 1 )
tracks/12/type = "transform"
tracks/12/path = NodePath("Armature/Skeleton:toe.L")
tracks/12/interp = 1
tracks/12/loop_wrap = true
tracks/12/imported = true
tracks/12/enabled = true
tracks/12/keys = PoolRealArray( 0, 1, 2.6169e-07, -2.98023e-08, 0, 5.96046e-08, -5.94555e-08, 2.23506e-09, 1, 1, 1, 1, 2, 1, 2.6169e-07, -2.98023e-08, 0, 5.96046e-08, -5.94555e-08, 2.23506e-09, 1, 1, 1, 1 )
tracks/13/type = "transform"
tracks/13/path = NodePath("Armature/Skeleton:heel.02.L")
tracks/13/interp = 1
tracks/13/loop_wrap = true
tracks/13/imported = true
tracks/13/enabled = true
tracks/13/keys = PoolRealArray( 0, 1, -7.45058e-08, 0, 2.68221e-07, 1.11401e-08, -1.86856e-08, -4.47035e-08, 1, 1, 1, 1, 2, 1, -7.45058e-08, 0, 2.68221e-07, 1.11401e-08, -1.86856e-08, -4.47035e-08, 1, 1, 1, 1 )
tracks/14/type = "transform"
tracks/14/path = NodePath("Armature/Skeleton:thigh.R")
tracks/14/interp = 1
tracks/14/loop_wrap = true
tracks/14/imported = true
tracks/14/enabled = true
tracks/14/keys = PoolRealArray( 0, 1, 5.96046e-08, -5.96046e-08, 5.96046e-08, -0.513146, 0.0299934, -0.161064, 0.84252, 1, 1, 1, 2, 1, 5.96046e-08, -5.96046e-08, 5.96046e-08, -0.513146, 0.0299934, -0.161064, 0.84252, 1, 1, 1 )
tracks/15/type = "transform"
tracks/15/path = NodePath("Armature/Skeleton:shin.R")
tracks/15/interp = 1
tracks/15/loop_wrap = true
tracks/15/imported = true
tracks/15/enabled = true
tracks/15/keys = PoolRealArray( 0, 1, -1.19209e-07, -5.96046e-08, 4.76837e-07, 0.747794, 0.0792103, -0.0239046, 0.658755, 1, 1, 1, 2, 1, -1.19209e-07, -5.96046e-08, 4.76837e-07, 0.747794, 0.0792103, -0.0239046, 0.658755, 1, 1, 1 )
tracks/16/type = "transform"
tracks/16/path = NodePath("Armature/Skeleton:foot.R")
tracks/16/interp = 1
tracks/16/loop_wrap = true
tracks/16/imported = true
tracks/16/enabled = true
tracks/16/keys = PoolRealArray( 0, 1, -1.19209e-07, 4.76837e-07, 1.19209e-07, -1.49012e-08, -1.49012e-08, -1.49012e-08, 1, 1, 1, 1, 2, 1, -1.19209e-07, 4.76837e-07, 1.19209e-07, -1.49012e-08, -1.49012e-08, -1.49012e-08, 1, 1, 1, 1 )
tracks/17/type = "transform"
tracks/17/path = NodePath("Armature/Skeleton:toe.R")
tracks/17/interp = 1
tracks/17/loop_wrap = true
tracks/17/imported = true
tracks/17/enabled = true
tracks/17/keys = PoolRealArray( 0, 1, -2.57956e-07, -2.98023e-08, -5.96046e-08, 2.98023e-08, -2.31564e-08, -4.55975e-08, 1, 1, 1, 1, 2, 1, -2.57956e-07, -2.98023e-08, -5.96046e-08, 2.98023e-08, -2.31564e-08, -4.55975e-08, 1, 1, 1, 1 )
tracks/18/type = "transform"
tracks/18/path = NodePath("Armature/Skeleton:heel.02.R")
tracks/18/interp = 1
tracks/18/loop_wrap = true
tracks/18/imported = true
tracks/18/enabled = true
tracks/18/keys = PoolRealArray( 0, 1, 2.98023e-08, 1.19209e-07, 1.63913e-07, 3.68964e-09, 6.71143e-08, 0, 1, 1, 1, 1, 2, 1, 2.98023e-08, 1.19209e-07, 1.63913e-07, 3.68964e-09, 6.71143e-08, 0, 1, 1, 1, 1 )
tracks/19/type = "transform"
tracks/19/path = NodePath("Armature/Skeleton:spine")
tracks/19/interp = 1
tracks/19/loop_wrap = true
tracks/19/imported = true
tracks/19/enabled = true
tracks/19/keys = PoolRealArray( 0, 1, 0.345978, 1.47676, 2.63125, -0.0708062, 0.0061918, 0.00612509, 0.997452, 1, 1, 1, 2, 1, 0.345978, 1.47676, 2.63125, -0.0708062, 0.0061918, 0.00612509, 0.997452, 1, 1, 1 )
tracks/20/type = "transform"
tracks/20/path = NodePath("Armature/Skeleton:spine.001")
tracks/20/interp = 1
tracks/20/loop_wrap = true
tracks/20/imported = true
tracks/20/enabled = true
tracks/20/keys = PoolRealArray( 0, 1, 7.91624e-09, 1.11759e-07, -7.15256e-07, -0.117994, 0.00170703, -0.00114518, 0.993012, 1, 1, 1, 0.0166667, 1, 7.91624e-09, 1.11759e-07, -7.15256e-07, -0.11785, 0.00170494, -0.00114378, 0.993029, 1, 1, 1, 0.0333333, 1, 7.91624e-09, 1.11759e-07, -7.15256e-07, -0.117415, 0.00169865, -0.00113956, 0.993081, 1, 1, 1, 0.05, 1, 7.91624e-09, 1.11759e-07, -7.15256e-07, -0.116688, 0.00168812, -0.0011325, 0.993167, 1, 1, 1, 0.0666667, 1, 7.91624e-09, 1.11759e-07, -7.15256e-07, -0.115666, 0.00167335, -0.00112259, 0.993286, 1, 1, 1, 0.1, 1, 7.91624e-09, 1.11759e-07, -7.15256e-07, -0.112735, 0.00163094, -0.00109414, 0.993623, 1, 1, 1, 0.7, 1, 7.91624e-09, 1.11759e-07, -7.15256e-07, 0.0753149, -0.00108958, 0.000730963, 0.997159, 1, 1, 1, 0.983333, 1, 7.91624e-09, 1.11759e-07, -7.15256e-07, 0.122276, -0.00176896, 0.00118674, 0.992494, 1, 1, 1, 1.03333, 1, 7.91624e-09, 1.11759e-07, -7.15256e-07, 0.122123, -0.00176676, 0.00118526, 0.992513, 1, 1, 1, 1.05, 1, 7.91624e-09, 1.11759e-07, -7.15256e-07, 0.12175, -0.00176137, 0.00118164, 0.992558, 1, 1, 1, 1.06667, 1, 7.91624e-09, 1.11759e-07, -7.15256e-07, 0.121227, -0.00175379, 0.00117656, 0.992623, 1, 1, 1, 1.1, 1, 7.91624e-09, 1.11759e-07, -7.15256e-07, 0.119726, -0.00173207, 0.00116199, 0.992805, 1, 1, 1, 2, 1, 7.91624e-09, 1.11759e-07, -7.15256e-07, 7.45058e-09, 3.53833e-10, -1.27812e-11, 1, 1, 1, 1 )
tracks/21/type = "transform"
tracks/21/path = NodePath("Armature/Skeleton:spine.002")
tracks/21/interp = 1
tracks/21/loop_wrap = true
tracks/21/imported = true
tracks/21/enabled = true
tracks/21/keys = PoolRealArray( 0, 1, -2.79397e-08, -2.98023e-07, 5.36442e-07, 0.140935, -0.0024527, 0.000111313, 0.990016, 1, 1, 1, 0.05, 1, 2.63099e-08, -5.96046e-08, 5.96046e-08, 0.140744, -0.00244937, 0.000111161, 0.990043, 1, 1, 1, 0.0833333, 1, 1.62981e-09, -8.64267e-07, 1.19209e-06, 0.140402, -0.00244342, 0.000110891, 0.990092, 1, 1, 1, 0.1, 1, -3.32948e-08, -2.98023e-07, 2.98023e-07, 0.140166, -0.00243932, 0.000110706, 0.990125, 1, 1, 1, 0.116667, 1, 8.3819e-09, -3.57628e-07, 7.7486e-07, 0.139887, -0.00243447, 0.000110486, 0.990164, 1, 1, 1, 0.133333, 1, 7.21775e-09, -3.27826e-07, 5.96046e-07, 0.139565, -0.00242886, 0.000110231, 0.99021, 1, 1, 1, 0.166667, 1, -1.21072e-08, -5.96046e-07, 5.96046e-07, 0.13879, -0.00241537, 0.000109618, 0.990319, 1, 1, 1, 0.183333, 1, 9.31323e-10, -4.17233e-07, 7.7486e-07, 0.138337, -0.00240749, 0.000109261, 0.990382, 1, 1, 1, 0.2, 1, 4.65661e-09, -2.98023e-08, 4.76837e-07, 0.137841, -0.00239885, 0.000108869, 0.990452, 1, 1, 1, 0.216667, 1, -2.04891e-08, -7.15256e-07, 7.7486e-07, 0.137301, -0.00238945, 0.000108442, 0.990527, 1, 1, 1, 0.25, 1, 1.35042e-08, -2.68221e-07, 1.78814e-07, 0.13609, -0.00236838, 0.000107486, 0.990694, 1, 1, 1, 2, 1, -8.3819e-09, -4.47035e-07, 4.76837e-07, -1.49012e-08, 3.46275e-10, -1.21758e-10, 1, 1, 1, 1 )
tracks/22/type = "transform"
tracks/22/path = NodePath("Armature/Skeleton:spine.003")
tracks/22/interp = 1
tracks/22/loop_wrap = true
tracks/22/imported = true
tracks/22/enabled = true
tracks/22/keys = PoolRealArray( 0, 1, 1.53667e-08, 4.76837e-07, 1.66893e-06, -1.49012e-08, -4.99011e-10, -3.40828e-10, 1, 1, 1, 1, 2, 1, 2.71247e-08, 2.38419e-07, 1.78814e-06, 1.49012e-08, 4.40874e-10, 2.50981e-11, 1, 1, 1, 1 )
tracks/23/type = "transform"
tracks/23/path = NodePath("Armature/Skeleton:spine.004")
tracks/23/interp = 1
tracks/23/loop_wrap = true
tracks/23/imported = true
tracks/23/enabled = true
tracks/23/keys = PoolRealArray( 0, 1, 5.58796e-09, -8.19564e-08, -2.98023e-06, -2.79397e-09, -2.13831e-10, -8.55925e-10, 1, 1, 1, 1, 2, 1, -4.70318e-08, -4.47035e-08, -2.6226e-06, 4.65661e-09, -3.09044e-10, -9.6266e-11, 1, 1, 1, 1 )
tracks/24/type = "transform"
tracks/24/path = NodePath("Armature/Skeleton:spine.005")
tracks/24/interp = 1
tracks/24/loop_wrap = true
tracks/24/imported = true
tracks/24/enabled = true
tracks/24/keys = PoolRealArray( 0, 1, -4.65685e-09, 4.61936e-07, 1.07288e-06, -2.98023e-08, 1.33724e-11, 1.76421e-10, 1, 1, 1, 1, 2, 1, -1.72298e-08, 5.73695e-07, 1.20699e-06, -2.98023e-08, -4.4556e-10, -2.00068e-10, 1, 1, 1, 1 )
tracks/25/type = "transform"
tracks/25/path = NodePath("Armature/Skeleton:head")
tracks/25/interp = 1
tracks/25/loop_wrap = true
tracks/25/imported = true
tracks/25/enabled = true
tracks/25/keys = PoolRealArray( 0, 1, -2.60775e-08, 3.8743e-07, -7.7486e-07, -0.0112562, 0.0101545, -0.046598, 0.998799, 1, 1, 1, 0.0333333, 1, -3.49248e-08, 8.9407e-07, -8.9407e-08, -0.0114825, 0.0101471, -0.0465978, 0.998796, 1, 1, 1, 0.05, 1, -3.58562e-08, 7.7486e-07, -3.27826e-07, -0.0117665, 0.0101378, -0.0465977, 0.998793, 1, 1, 1, 0.0666667, 1, -5.26199e-08, 3.57628e-07, 8.9407e-08, -0.0121654, 0.0101247, -0.0465975, 0.998788, 1, 1, 1, 0.0833333, 1, 2.46799e-08, 9.53674e-07, 0, -0.0126794, 0.0101079, -0.0465972, 0.998782, 1, 1, 1, 0.1, 1, -3.18981e-08, 6.55651e-07, -2.38419e-07, -0.0133089, 0.0100873, -0.0465968, 0.998774, 1, 1, 1, 0.116667, 1, -1.81611e-08, 5.66244e-07, -2.98023e-07, -0.0140537, 0.0100629, -0.0465963, 0.998764, 1, 1, 1, 0.133333, 1, -2.78235e-08, 3.57628e-07, -2.98023e-08, -0.0149137, 0.0100348, -0.0465958, 0.998752, 1, 1, 1, 0.15, 1, -2.30505e-08, 5.36442e-07, -2.98023e-07, -0.0158881, 0.0100029, -0.0465951, 0.998737, 1, 1, 1, 1, 1, 7.44971e-09, 1.19209e-06, -4.17233e-07, -0.103808, 0.00709565, -0.0463502, 0.993491, 1, 1, 1, 1.01667, 1, -3.9115e-08, 7.15256e-07, 2.08616e-07, -0.103679, 0.00710058, -0.0463509, 0.993505, 1, 1, 1, 1.03333, 1, -2.60778e-08, 5.06639e-07, -1.2815e-06, -0.103279, 0.00711457, -0.0463528, 0.993546, 1, 1, 1, 1.05, 1, -7.45129e-09, -5.96046e-08, -6.25849e-07, -0.102606, 0.0071377, -0.046356, 0.993616, 1, 1, 1, 1.06667, 1, -2.04887e-08, 9.83477e-07, 6.85453e-07, -0.101659, 0.00717001, -0.0463606, 0.993713, 1, 1, 1, 1.08333, 1, -1.30391e-08, -1.78814e-07, -4.17233e-07, -0.100434, 0.00721153, -0.0463663, 0.993837, 1, 1, 1, 1.1, 1, -3.16643e-08, 1.19209e-06, 1.16229e-06, -0.0989334, 0.00726228, -0.0463733, 0.993986, 1, 1, 1, 1.15, 1, 1.67627e-08, 2.98023e-07, -6.25849e-07, -0.0927688, 0.00746975, -0.0464009, 0.994578, 1, 1, 1, 1.78333, 1, -4.25212e-09, 1.07288e-06, -2.98023e-07, 0.0967945, 0.0136126, -0.0463803, 0.99413, 1, 1, 1, 1.91667, 1, -8.73129e-09, 7.45058e-07, -6.55651e-07, 0.116474, 0.0142276, -0.0462815, 0.992013, 1, 1, 1, 1.95, 1, -5.70758e-09, 8.34465e-07, -2.38419e-07, 0.11865, 0.0142954, -0.0462695, 0.991754, 1, 1, 1, 1.98333, 1, -2.26999e-08, 5.36442e-07, -4.47035e-07, 0.119731, 0.014329, -0.0462634, 0.991624, 1, 1, 1, 2, 1, 6.16966e-09, 1.51992e-06, -7.15256e-07, 0.119866, 0.0143332, -0.0462626, 0.991608, 1, 1, 1 )
