[gd_resource type="Animation" format=2]

[resource]
resource_name = "Sit_Read"
length = 0.0166667
loop = true
tracks/0/type = "transform"
tracks/0/path = NodePath("Armature")
tracks/0/interp = 1
tracks/0/loop_wrap = true
tracks/0/imported = true
tracks/0/enabled = true
tracks/0/keys = PoolRealArray( 0, 1, -0.0453508, 0.0431511, -0.116433, 0, 0, 0, 1, 1, 1, 1, 0.0166667, 1, -0.0453508, 0.0431511, -0.116433, 0, 0, 0, 1, 1, 1, 1 )
tracks/1/type = "transform"
tracks/1/path = NodePath("Armature/Skeleton:shoulder.L")
tracks/1/interp = 1
tracks/1/loop_wrap = true
tracks/1/imported = true
tracks/1/enabled = true
tracks/1/keys = PoolRealArray( 0, 1, 5.96046e-08, 1.43051e-06, 1.95578e-08, -6.98492e-10, 2.73139e-08, -1.86264e-09, 1, 1, 1, 1, 0.0166667, 1, 5.96046e-08, 1.43051e-06, 1.95578e-08, -6.98492e-10, 2.73139e-08, -1.86264e-09, 1, 1, 1, 1 )
tracks/2/type = "transform"
tracks/2/path = NodePath("Armature/Skeleton:upper_arm.L")
tracks/2/interp = 1
tracks/2/loop_wrap = true
tracks/2/imported = true
tracks/2/enabled = true
tracks/2/keys = PoolRealArray( 0, 1, -7.7486e-07, 0, -2.38419e-07, 0.182566, -0.649527, -0.514205, 0.529507, 1, 1, 1, 0.0166667, 1, -7.7486e-07, 0, -2.38419e-07, 0.182566, -0.649527, -0.514205, 0.529507, 1, 1, 1 )
tracks/3/type = "transform"
tracks/3/path = NodePath("Armature/Skeleton:forearm.L")
tracks/3/interp = 1
tracks/3/loop_wrap = true
tracks/3/imported = true
tracks/3/enabled = true
tracks/3/keys = PoolRealArray( 0, 1, 5.36442e-07, 4.76837e-07, 1.07288e-06, 0.254092, 0.673199, -0.390566, 0.574193, 1, 1, 1, 0.0166667, 1, 5.36442e-07, 4.76837e-07, 1.07288e-06, 0.254092, 0.673199, -0.390566, 0.574193, 1, 1, 1 )
tracks/4/type = "transform"
tracks/4/path = NodePath("Armature/Skeleton:hand.L")
tracks/4/interp = 1
tracks/4/loop_wrap = true
tracks/4/imported = true
tracks/4/enabled = true
tracks/4/keys = PoolRealArray( 0, 1, -2.36928e-06, 7.7486e-07, 2.38419e-07, -3.95517e-16, -7.45058e-09, -2.51457e-08, 1, 1, 1, 1, 0.0166667, 1, -2.36928e-06, 7.7486e-07, 2.38419e-07, -3.95517e-16, -7.45058e-09, -2.51457e-08, 1, 1, 1, 1 )
tracks/5/type = "transform"
tracks/5/path = NodePath("Armature/Skeleton:shoulder.R")
tracks/5/interp = 1
tracks/5/loop_wrap = true
tracks/5/imported = true
tracks/5/enabled = true
tracks/5/keys = PoolRealArray( 0, 1, -2.98023e-08, 1.2517e-06, 2.04891e-08, 2.32831e-10, -1.21217e-08, 2.79397e-09, 1, 1, 1, 1, 0.0166667, 1, -2.98023e-08, 1.2517e-06, 2.04891e-08, 2.32831e-10, -1.21217e-08, 2.79397e-09, 1, 1, 1, 1 )
tracks/6/type = "transform"
tracks/6/path = NodePath("Armature/Skeleton:upper_arm.R")
tracks/6/interp = 1
tracks/6/loop_wrap = true
tracks/6/imported = true
tracks/6/enabled = true
tracks/6/keys = PoolRealArray( 0, 1, 1.54972e-06, 2.08616e-07, 0, 0.659074, 0.228622, 0.354377, 0.622712, 1, 1, 1, 0.0166667, 1, 1.54972e-06, 2.08616e-07, 0, 0.659074, 0.228622, 0.354377, 0.622712, 1, 1, 1 )
tracks/7/type = "transform"
tracks/7/path = NodePath("Armature/Skeleton:forearm.R")
tracks/7/interp = 1
tracks/7/loop_wrap = true
tracks/7/imported = true
tracks/7/enabled = true
tracks/7/keys = PoolRealArray( 0, 1, -2.80142e-06, 0, 2.38419e-07, -0.0589961, -0.799256, 0.149569, 0.579084, 1, 1, 1, 0.0166667, 1, -2.80142e-06, 0, 2.38419e-07, -0.0589961, -0.799256, 0.149569, 0.579084, 1, 1, 1 )
tracks/8/type = "transform"
tracks/8/path = NodePath("Armature/Skeleton:hand.R")
tracks/8/interp = 1
tracks/8/loop_wrap = true
tracks/8/imported = true
tracks/8/enabled = true
tracks/8/keys = PoolRealArray( 0, 1, 3.38256e-06, -2.98023e-08, -4.76837e-07, -1.86264e-08, -2.98023e-08, -4.65661e-09, 1, 1, 1, 1, 0.0166667, 1, 3.38256e-06, -2.98023e-08, -4.76837e-07, -1.86264e-08, -2.98023e-08, -4.65661e-09, 1, 1, 1, 1 )
tracks/9/type = "transform"
tracks/9/path = NodePath("Armature/Skeleton:thigh.L")
tracks/9/interp = 1
tracks/9/loop_wrap = true
tracks/9/imported = true
tracks/9/enabled = true
tracks/9/keys = PoolRealArray( 0, 1, 1.19209e-07, 0, 7.15256e-07, -0.534103, -0.0147906, 0.201125, 0.821014, 1, 1, 1, 0.0166667, 1, 1.19209e-07, 0, 7.15256e-07, -0.534103, -0.0147906, 0.201125, 0.821014, 1, 1, 1 )
tracks/10/type = "transform"
tracks/10/path = NodePath("Armature/Skeleton:shin.L")
tracks/10/interp = 1
tracks/10/loop_wrap = true
tracks/10/imported = true
tracks/10/enabled = true
tracks/10/keys = PoolRealArray( 0, 1, 1.04308e-07, -5.96046e-08, -4.76837e-07, 0.713142, -0.268479, 0.0515667, 0.645514, 1, 1, 1, 0.0166667, 1, 1.04308e-07, -5.96046e-08, -4.76837e-07, 0.713142, -0.268479, 0.0515667, 0.645514, 1, 1, 1 )
tracks/11/type = "transform"
tracks/11/path = NodePath("Armature/Skeleton:foot.L")
tracks/11/interp = 1
tracks/11/loop_wrap = true
tracks/11/imported = true
tracks/11/enabled = true
tracks/11/keys = PoolRealArray( 0, 1, 0, 4.76837e-07, -1.19209e-07, 1.49012e-08, 1.11759e-08, 1.49012e-08, 1, 1, 1, 1, 0.0166667, 1, 0, 4.76837e-07, -1.19209e-07, 1.49012e-08, 1.11759e-08, 1.49012e-08, 1, 1, 1, 1 )
tracks/12/type = "transform"
tracks/12/path = NodePath("Armature/Skeleton:toe.L")
tracks/12/interp = 1
tracks/12/loop_wrap = true
tracks/12/imported = true
tracks/12/enabled = true
tracks/12/keys = PoolRealArray( 0, 1, 2.6169e-07, -2.98023e-08, 0, 5.96046e-08, -5.94555e-08, 2.23506e-09, 1, 1, 1, 1, 0.0166667, 1, 2.6169e-07, -2.98023e-08, 0, 5.96046e-08, -5.94555e-08, 2.23506e-09, 1, 1, 1, 1 )
tracks/13/type = "transform"
tracks/13/path = NodePath("Armature/Skeleton:heel.02.L")
tracks/13/interp = 1
tracks/13/loop_wrap = true
tracks/13/imported = true
tracks/13/enabled = true
tracks/13/keys = PoolRealArray( 0, 1, -7.45058e-08, 0, 2.68221e-07, 1.11401e-08, -1.86856e-08, -4.47035e-08, 1, 1, 1, 1, 0.0166667, 1, -7.45058e-08, 0, 2.68221e-07, 1.11401e-08, -1.86856e-08, -4.47035e-08, 1, 1, 1, 1 )
tracks/14/type = "transform"
tracks/14/path = NodePath("Armature/Skeleton:thigh.R")
tracks/14/interp = 1
tracks/14/loop_wrap = true
tracks/14/imported = true
tracks/14/enabled = true
tracks/14/keys = PoolRealArray( 0, 1, 5.96046e-08, -5.96046e-08, 5.96046e-08, -0.513146, 0.0299934, -0.161064, 0.84252, 1, 1, 1, 0.0166667, 1, 5.96046e-08, -5.96046e-08, 5.96046e-08, -0.513146, 0.0299934, -0.161064, 0.84252, 1, 1, 1 )
tracks/15/type = "transform"
tracks/15/path = NodePath("Armature/Skeleton:shin.R")
tracks/15/interp = 1
tracks/15/loop_wrap = true
tracks/15/imported = true
tracks/15/enabled = true
tracks/15/keys = PoolRealArray( 0, 1, -1.19209e-07, -5.96046e-08, 4.76837e-07, 0.747794, 0.0792103, -0.0239046, 0.658755, 1, 1, 1, 0.0166667, 1, -1.19209e-07, -5.96046e-08, 4.76837e-07, 0.747794, 0.0792103, -0.0239046, 0.658755, 1, 1, 1 )
tracks/16/type = "transform"
tracks/16/path = NodePath("Armature/Skeleton:foot.R")
tracks/16/interp = 1
tracks/16/loop_wrap = true
tracks/16/imported = true
tracks/16/enabled = true
tracks/16/keys = PoolRealArray( 0, 1, -1.19209e-07, 4.76837e-07, 1.19209e-07, -1.49012e-08, -1.49012e-08, -1.49012e-08, 1, 1, 1, 1, 0.0166667, 1, -1.19209e-07, 4.76837e-07, 1.19209e-07, -1.49012e-08, -1.49012e-08, -1.49012e-08, 1, 1, 1, 1 )
tracks/17/type = "transform"
tracks/17/path = NodePath("Armature/Skeleton:toe.R")
tracks/17/interp = 1
tracks/17/loop_wrap = true
tracks/17/imported = true
tracks/17/enabled = true
tracks/17/keys = PoolRealArray( 0, 1, -2.57956e-07, -2.98023e-08, -5.96046e-08, 2.98023e-08, -2.31564e-08, -4.55975e-08, 1, 1, 1, 1, 0.0166667, 1, -2.57956e-07, -2.98023e-08, -5.96046e-08, 2.98023e-08, -2.31564e-08, -4.55975e-08, 1, 1, 1, 1 )
tracks/18/type = "transform"
tracks/18/path = NodePath("Armature/Skeleton:heel.02.R")
tracks/18/interp = 1
tracks/18/loop_wrap = true
tracks/18/imported = true
tracks/18/enabled = true
tracks/18/keys = PoolRealArray( 0, 1, 2.98023e-08, 1.19209e-07, 1.63913e-07, 3.68964e-09, 6.71143e-08, 0, 1, 1, 1, 1, 0.0166667, 1, 2.98023e-08, 1.19209e-07, 1.63913e-07, 3.68964e-09, 6.71143e-08, 0, 1, 1, 1, 1 )
tracks/19/type = "transform"
tracks/19/path = NodePath("Armature/Skeleton:spine")
tracks/19/interp = 1
tracks/19/loop_wrap = true
tracks/19/imported = true
tracks/19/enabled = true
tracks/19/keys = PoolRealArray( 0, 1, 0.345978, 1.47676, 2.63125, -0.0708062, 0.0061918, 0.00612509, 0.997452, 1, 1, 1, 0.0166667, 1, 0.345978, 1.47676, 2.63125, -0.0708062, 0.0061918, 0.00612509, 0.997452, 1, 1, 1 )
tracks/20/type = "transform"
tracks/20/path = NodePath("Armature/Skeleton:spine.001")
tracks/20/interp = 1
tracks/20/loop_wrap = true
tracks/20/imported = true
tracks/20/enabled = true
tracks/20/keys = PoolRealArray( 0, 1, 7.91624e-09, 1.11759e-07, -7.15256e-07, -0.117994, 0.00170703, -0.00114518, 0.993012, 1, 1, 1, 0.0166667, 1, 7.91624e-09, 1.11759e-07, -7.15256e-07, -0.117994, 0.00170703, -0.00114518, 0.993012, 1, 1, 1 )
tracks/21/type = "transform"
tracks/21/path = NodePath("Armature/Skeleton:spine.002")
tracks/21/interp = 1
tracks/21/loop_wrap = true
tracks/21/imported = true
tracks/21/enabled = true
tracks/21/keys = PoolRealArray( 0, 1, -2.79397e-08, -2.98023e-07, 5.36442e-07, 0.140935, -0.0024527, 0.000111313, 0.990016, 1, 1, 1, 0.0166667, 1, -2.79397e-08, -2.98023e-07, 5.36442e-07, 0.140935, -0.0024527, 0.000111313, 0.990016, 1, 1, 1 )
tracks/22/type = "transform"
tracks/22/path = NodePath("Armature/Skeleton:spine.003")
tracks/22/interp = 1
tracks/22/loop_wrap = true
tracks/22/imported = true
tracks/22/enabled = true
tracks/22/keys = PoolRealArray( 0, 1, 1.53667e-08, 4.76837e-07, 1.66893e-06, -1.49012e-08, -4.99011e-10, -3.40828e-10, 1, 1, 1, 1, 0.0166667, 1, 1.53667e-08, 4.76837e-07, 1.66893e-06, -1.49012e-08, -4.99011e-10, -3.40828e-10, 1, 1, 1, 1 )
tracks/23/type = "transform"
tracks/23/path = NodePath("Armature/Skeleton:spine.004")
tracks/23/interp = 1
tracks/23/loop_wrap = true
tracks/23/imported = true
tracks/23/enabled = true
tracks/23/keys = PoolRealArray( 0, 1, 5.58796e-09, -8.19564e-08, -2.98023e-06, -2.79397e-09, -2.13831e-10, -8.55925e-10, 1, 1, 1, 1, 0.0166667, 1, 5.58796e-09, -8.19564e-08, -2.98023e-06, -2.79397e-09, -2.13831e-10, -8.55925e-10, 1, 1, 1, 1 )
tracks/24/type = "transform"
tracks/24/path = NodePath("Armature/Skeleton:spine.005")
tracks/24/interp = 1
tracks/24/loop_wrap = true
tracks/24/imported = true
tracks/24/enabled = true
tracks/24/keys = PoolRealArray( 0, 1, -4.65685e-09, 4.61936e-07, 1.07288e-06, -2.98023e-08, 1.33724e-11, 1.76421e-10, 1, 1, 1, 1, 0.0166667, 1, -4.65685e-09, 4.61936e-07, 1.07288e-06, -2.98023e-08, 1.33724e-11, 1.76421e-10, 1, 1, 1, 1 )
tracks/25/type = "transform"
tracks/25/path = NodePath("Armature/Skeleton:head")
tracks/25/interp = 1
tracks/25/loop_wrap = true
tracks/25/imported = true
tracks/25/enabled = true
tracks/25/keys = PoolRealArray( 0, 1, -2.60775e-08, 3.8743e-07, -7.7486e-07, 0.132627, 0.0147301, -0.0461867, 0.98998, 1, 1, 1, 0.0166667, 1, -2.60775e-08, 3.8743e-07, -7.7486e-07, 0.132627, 0.0147301, -0.0461867, 0.98998, 1, 1, 1 )
