[gd_resource type="Animation" format=2]

[resource]
resource_name = "Hostage_Freed2"
length = 0.4
tracks/0/type = "transform"
tracks/0/path = NodePath("Armature")
tracks/0/interp = 1
tracks/0/loop_wrap = true
tracks/0/imported = true
tracks/0/enabled = true
tracks/0/keys = PoolRealArray( 0, 1, -0.0453508, 0.0431511, -0.116433, 0, 0, 0, 1, 1, 1, 1, 0.4, 1, -0.0453508, 0.0431511, -0.116433, 0, 0, 0, 1, 1, 1, 1 )
tracks/1/type = "transform"
tracks/1/path = NodePath("Armature/Skeleton:shoulder.L")
tracks/1/interp = 1
tracks/1/loop_wrap = true
tracks/1/imported = true
tracks/1/enabled = true
tracks/1/keys = PoolRealArray( 0, 1, 1.78814e-07, 1.3113e-06, 5.7742e-08, -2.56114e-09, 4.22515e-08, 9.31323e-10, 1, 1, 1, 1, 0.4, 1, 8.9407e-08, 1.37091e-06, 3.49246e-08, -9.31323e-10, 2.73649e-08, 4.65661e-09, 1, 1, 1, 1 )
tracks/2/type = "transform"
tracks/2/path = NodePath("Armature/Skeleton:upper_arm.L")
tracks/2/interp = 1
tracks/2/loop_wrap = true
tracks/2/imported = true
tracks/2/enabled = true
tracks/2/keys = PoolRealArray( 0, 1, -3.57628e-07, 2.08616e-07, -3.57628e-07, 0.0800411, 0.453596, 0.0216569, 0.887342, 1, 1, 1, 0.0166667, 1, -3.57628e-07, -1.19209e-07, -2.38419e-07, 0.0801128, 0.4531, 0.0240304, 0.887528, 1, 1, 1, 0.0333333, 1, -2.38419e-07, 3.57628e-07, -3.57628e-07, 0.0803276, 0.451579, 0.0312248, 0.888059, 1, 1, 1, 0.05, 1, -2.98023e-07, 8.9407e-08, -2.38419e-07, 0.0806798, 0.448961, 0.0433469, 0.888845, 1, 1, 1, 0.0666667, 1, -1.19209e-07, 3.27826e-07, -5.96046e-07, 0.0811565, 0.445141, 0.0604798, 0.889722, 1, 1, 1, 0.0833333, 1, -2.38419e-07, 2.38419e-07, -5.96046e-07, 0.0817368, 0.439985, 0.0826513, 0.89045, 1, 1, 1, 0.133333, 1, -3.57628e-07, 1.49012e-07, -2.38419e-07, 0.0837553, 0.415089, 0.177923, 0.888274, 1, 1, 1, 0.2, 1, -4.76837e-07, -1.78814e-07, -4.76837e-07, 0.0853386, 0.358237, 0.349955, 0.861345, 1, 1, 1, 0.266667, 1, -5.36442e-07, 2.98023e-07, -3.57628e-07, 0.0840584, 0.289364, 0.510244, 0.805514, 1, 1, 1, 0.316667, 1, -7.7486e-07, 1.49012e-07, -1.19209e-07, 0.0821992, 0.24819, 0.589614, 0.764199, 1, 1, 1, 0.333333, 1, 2.38419e-07, 1.49012e-07, -1.19209e-07, 0.0816551, 0.238314, 0.607174, 0.753577, 1, 1, 1, 0.35, 1, -5.36442e-07, 1.19209e-07, -3.57628e-07, 0.0812061, 0.230608, 0.620512, 0.745111, 1, 1, 1, 0.366667, 1, 2.38419e-07, -1.19209e-07, -2.38419e-07, 0.0808736, 0.225116, 0.629826, 0.738987, 1, 1, 1, 0.383333, 1, 5.96046e-08, 2.08616e-07, -1.19209e-07, 0.0806703, 0.221841, 0.635306, 0.735299, 1, 1, 1, 0.4, 1, -7.7486e-07, -2.98023e-08, -4.76837e-07, 0.0806024, 0.220758, 0.637106, 0.734074, 1, 1, 1 )
tracks/3/type = "transform"
tracks/3/path = NodePath("Armature/Skeleton:forearm.L")
tracks/3/interp = 1
tracks/3/loop_wrap = true
tracks/3/imported = true
tracks/3/enabled = true
tracks/3/keys = PoolRealArray( 0, 1, 2.38419e-07, 7.7486e-07, 4.76837e-07, 0.436832, 0.277572, 0.783667, 0.343508, 1, 1, 1, 0.0166667, 1, 2.38419e-07, 6.25849e-07, 7.15256e-07, 0.436133, 0.277128, 0.782414, 0.347588, 1, 1, 1, 0.0333333, 1, 1.78814e-07, 8.64267e-07, 5.96046e-07, 0.433952, 0.275742, 0.778501, 0.359982, 1, 1, 1, 0.05, 1, 1.78814e-07, 7.7486e-07, 4.76837e-07, 0.430062, 0.27327, 0.771523, 0.38095, 1, 1, 1, 0.0666667, 1, 2.38419e-07, 7.45058e-07, 2.38419e-07, 0.424092, 0.269476, 0.760812, 0.410724, 1, 1, 1, 0.0833333, 1, 1.78814e-07, 8.04663e-07, 4.76837e-07, 0.415523, 0.264032, 0.74544, 0.449384, 1, 1, 1, 0.116667, 1, 2.38419e-07, 4.47035e-07, 4.76837e-07, 0.387938, 0.246504, 0.695953, 0.551714, 1, 1, 1, 0.15, 1, 7.7486e-07, 1.01328e-06, 3.57628e-07, 0.342183, 0.21743, 0.613869, 0.677348, 1, 1, 1, 0.183333, 1, 2.98023e-07, 8.34465e-07, 9.53674e-07, 0.277675, 0.17644, 0.498143, 0.802259, 1, 1, 1, 0.216667, 1, 2.38419e-07, 5.36442e-07, 7.15256e-07, 0.203271, 0.129163, 0.364665, 0.899454, 1, 1, 1, 0.25, 1, 0, 3.57628e-07, 7.15256e-07, 0.133098, 0.0845729, 0.238774, 0.958185, 1, 1, 1, 0.283333, 1, 2.98023e-07, 6.85453e-07, 4.76837e-07, 0.0769274, 0.0488812, 0.138006, 0.986229, 1, 1, 1, 0.3, 1, 5.36442e-07, -2.68221e-07, 1.3113e-06, 0.0550936, 0.0350076, 0.0988367, 0.99296, 1, 1, 1, 0.316667, 1, 4.76837e-07, 8.04663e-07, 1.07288e-06, 0.0373162, 0.0237115, 0.0669443, 0.996777, 1, 1, 1, 0.333333, 1, 1.19209e-07, 6.85453e-07, 1.19209e-07, 0.0233355, 0.0148278, 0.0418634, 0.998741, 1, 1, 1, 0.35, 1, 2.38419e-07, 4.47035e-07, 1.19209e-07, 0.0128602, 0.00817161, 0.0230708, 0.999618, 1, 1, 1, 0.366667, 1, 6.55651e-07, 1.43051e-06, -3.57628e-07, 0.00561824, 0.00357, 0.010079, 0.999927, 1, 1, 1, 0.383333, 1, 3.57628e-07, 1.49012e-07, 1.3113e-06, 0.00138575, 0.000880546, 0.00248597, 0.999996, 1, 1, 1, 0.4, 1, 1.78814e-07, 1.19209e-07, -1.19209e-07, 4.47035e-08, 2.98023e-08, -3.72529e-09, 1, 1, 1, 1 )
tracks/4/type = "transform"
tracks/4/path = NodePath("Armature/Skeleton:hand.L")
tracks/4/interp = 1
tracks/4/loop_wrap = true
tracks/4/imported = true
tracks/4/enabled = true
tracks/4/keys = PoolRealArray( 0, 1, -1.44541e-06, 1.05798e-06, 2.38419e-07, -1.49012e-08, 3.72529e-08, -2.98023e-08, 1, 1, 1, 1, 0.4, 1, -1.63913e-06, 1.38581e-06, -1.19209e-07, -1.86265e-08, 2.23517e-08, -2.98023e-08, 1, 1, 1, 1 )
tracks/5/type = "transform"
tracks/5/path = NodePath("Armature/Skeleton:shoulder.R")
tracks/5/interp = 1
tracks/5/loop_wrap = true
tracks/5/imported = true
tracks/5/enabled = true
tracks/5/keys = PoolRealArray( 0, 1, -1.19209e-07, 1.3113e-06, 5.72763e-08, 1.16415e-09, -1.2129e-08, 1.86264e-09, 1, 1, 1, 1, 0.4, 1, -1.78814e-07, 1.96695e-06, 4.65661e-10, -2.79397e-09, 2.80852e-09, 5.58794e-09, 1, 1, 1, 1 )
tracks/6/type = "transform"
tracks/6/path = NodePath("Armature/Skeleton:upper_arm.R")
tracks/6/interp = 1
tracks/6/loop_wrap = true
tracks/6/imported = true
tracks/6/enabled = true
tracks/6/keys = PoolRealArray( 0, 1, 1.19209e-06, 4.17233e-07, 1.19209e-07, 0.0738853, -0.282487, -0.416768, 0.86084, 1, 1, 1, 0.0166667, 1, 1.2517e-06, 2.98023e-07, -2.38419e-07, 0.0746022, -0.281768, -0.418272, 0.860285, 1, 1, 1, 0.0333333, 1, 1.19209e-06, 1.49012e-07, 0, 0.0767706, -0.279586, -0.422814, 0.858584, 1, 1, 1, 0.05, 1, 1.3113e-06, 5.96046e-08, 1.19209e-07, 0.080409, -0.275898, -0.430415, 0.855662, 1, 1, 1, 0.0666667, 1, 1.19209e-06, 5.06639e-07, -1.19209e-07, 0.0855203, -0.270662, -0.441052, 0.851412, 1, 1, 1, 0.1, 1, 1.3113e-06, 2.38419e-07, 0, 0.100047, -0.255412, -0.471015, 0.838391, 1, 1, 1, 0.2, 1, 9.53674e-07, 2.38419e-07, 1.19209e-07, 0.168398, -0.175872, -0.606271, 0.757065, 1, 1, 1, 0.3, 1, 1.01328e-06, 3.57628e-07, -1.19209e-07, 0.230701, -0.0900162, -0.719758, 0.648555, 1, 1, 1, 0.333333, 1, 1.96695e-06, 5.06639e-07, -3.57628e-07, 0.242509, -0.0719272, -0.739933, 0.62331, 1, 1, 1, 0.35, 1, 1.19209e-06, 2.68221e-07, 2.38419e-07, 0.246553, -0.065575, -0.746724, 0.614259, 1, 1, 1, 0.366667, 1, 1.54972e-06, 7.7486e-07, 2.38419e-07, 0.249396, -0.0610571, -0.751464, 0.607763, 1, 1, 1, 0.383333, 1, 1.2517e-06, -2.98023e-08, 2.38419e-07, 0.251077, -0.0583662, -0.75425, 0.603871, 1, 1, 1, 0.4, 1, 1.78814e-06, 5.06639e-07, 3.57628e-07, 0.25163, -0.0574767, -0.755166, 0.602581, 1, 1, 1 )
tracks/7/type = "transform"
tracks/7/path = NodePath("Armature/Skeleton:forearm.R")
tracks/7/interp = 1
tracks/7/loop_wrap = true
tracks/7/imported = true
tracks/7/enabled = true
tracks/7/keys = PoolRealArray( 0, 1, -3.09944e-06, -3.27826e-07, -5.96046e-07, 0.508013, -0.371227, -0.20404, 0.749988, 1, 1, 1, 0.0166667, 1, -3.21865e-06, -1.19209e-07, -1.19209e-07, 0.506334, -0.37, -0.203366, 0.75191, 1, 1, 1, 0.0333333, 1, -3.21865e-06, -2.38419e-07, -1.19209e-07, 0.501226, -0.366268, -0.201315, 0.757689, 1, 1, 1, 0.05, 1, -3.27826e-06, 0, -1.19209e-07, 0.492555, -0.359931, -0.197832, 0.767269, 1, 1, 1, 0.0666667, 1, -3.33786e-06, -2.98023e-08, -3.57628e-07, 0.480164, -0.350876, -0.192855, 0.780471, 1, 1, 1, 0.1, 1, -2.92063e-06, 2.98023e-07, -3.57628e-07, 0.443677, -0.324214, -0.1782, 0.81626, 1, 1, 1, 0.166667, 1, -2.68221e-06, -8.9407e-08, -4.76837e-07, 0.325817, -0.238088, -0.130862, 0.905556, 1, 1, 1, 0.216667, 1, -2.74181e-06, 8.9407e-08, -3.57628e-07, 0.215435, -0.157427, -0.086528, 0.959853, 1, 1, 1, 0.283333, 1, -2.68221e-06, 5.96046e-08, -5.96046e-07, 0.0876895, -0.0640786, -0.03522, 0.993461, 1, 1, 1, 0.316667, 1, -2.80142e-06, -3.8743e-07, -1.19209e-07, 0.0439744, -0.0321341, -0.0176621, 0.99836, 1, 1, 1, 0.333333, 1, -2.80142e-06, -8.9407e-08, 2.38419e-07, 0.0278561, -0.0203557, -0.0111882, 0.999342, 1, 1, 1, 0.35, 1, -3.21865e-06, -4.17233e-07, -4.76837e-07, 0.0155066, -0.0113314, -0.00622812, 0.999796, 1, 1, 1, 0.366667, 1, -3.03984e-06, -2.38419e-07, 0, 0.00682307, -0.00498588, -0.00274048, 0.999961, 1, 1, 1, 0.383333, 1, -2.86102e-06, -5.66244e-07, 2.38419e-07, 0.00169008, -0.00123513, -0.000678817, 0.999998, 1, 1, 1, 0.4, 1, -3.45707e-06, 0, -1.19209e-07, -7.45058e-09, -5.96047e-08, -1.30385e-08, 1, 1, 1, 1 )
tracks/8/type = "transform"
tracks/8/path = NodePath("Armature/Skeleton:hand.R")
tracks/8/interp = 1
tracks/8/loop_wrap = true
tracks/8/imported = true
tracks/8/enabled = true
tracks/8/keys = PoolRealArray( 0, 1, 2.89083e-06, -3.72529e-07, -7.15256e-07, -2.6077e-08, 7.45058e-09, 6.51926e-09, 1, 1, 1, 1, 0.4, 1, 3.54648e-06, -4.17233e-07, -1.19209e-07, -3.35276e-08, 1.49012e-08, 5.58794e-09, 1, 1, 1, 1 )
tracks/9/type = "transform"
tracks/9/path = NodePath("Armature/Skeleton:thigh.L")
tracks/9/interp = 1
tracks/9/loop_wrap = true
tracks/9/imported = true
tracks/9/enabled = true
tracks/9/keys = PoolRealArray( 0, 1, 5.96046e-08, -5.96046e-08, 1.10269e-06, -0.493208, -0.0787856, 0.120771, 0.857877, 1, 1, 1, 0.133333, 1, 5.96046e-08, -1.49012e-07, 1.01328e-06, -0.337876, -0.14575, 0.0758266, 0.92674, 1, 1, 1, 0.25, 1, 0, -3.27826e-07, 1.2219e-06, -0.186209, -0.202188, 0.0326161, 0.960928, 1, 1, 1, 0.383333, 1, 5.96046e-08, 1.19209e-07, 4.17233e-07, -0.0116839, -0.257849, -0.016408, 0.965975, 1, 1, 1, 0.4, 1, 5.96046e-08, -3.27826e-07, 1.40071e-06, 0.00932976, -0.263917, -0.0222631, 0.964243, 1, 1, 1 )
tracks/10/type = "transform"
tracks/10/path = NodePath("Armature/Skeleton:shin.L")
tracks/10/interp = 1
tracks/10/loop_wrap = true
tracks/10/imported = true
tracks/10/enabled = true
tracks/10/keys = PoolRealArray( 0, 1, 4.47035e-08, -1.49012e-07, -4.76837e-07, 0.966642, 0.0485589, -0.0094266, 0.25131, 1, 1, 1, 0.0166667, 1, 1.04308e-07, -2.08616e-07, -7.15256e-07, 0.966008, 0.0487493, -0.00927346, 0.253707, 1, 1, 1, 0.0333333, 1, 5.96046e-08, -1.49012e-07, -4.76837e-07, 0.964048, 0.0493248, -0.00880873, 0.260962, 1, 1, 1, 0.05, 1, 4.47035e-08, -2.98023e-08, -4.76837e-07, 0.960619, 0.0502888, -0.00802405, 0.273162, 1, 1, 1, 0.0666667, 1, 1.49012e-08, -8.9407e-08, -4.76837e-07, 0.955501, 0.0516389, -0.0069114, 0.290351, 1, 1, 1, 0.0833333, 1, 1.49012e-08, -5.96046e-08, -4.76837e-07, 0.948402, 0.0533646, -0.00546532, 0.312499, 1, 1, 1, 0.116667, 1, 1.04308e-07, -2.98023e-08, -4.76837e-07, 0.926861, 0.0578387, -0.0015815, 0.370918, 1, 1, 1, 0.183333, 1, -1.3411e-07, -3.27826e-07, -4.76837e-07, 0.846419, 0.0692381, 0.00941223, 0.527913, 1, 1, 1, 0.233333, 1, 8.9407e-08, -5.96046e-08, -4.76837e-07, 0.757663, 0.077187, 0.0184817, 0.647801, 1, 1, 1, 0.316667, 1, -1.78814e-07, -5.96046e-08, -7.15256e-07, 0.62031, 0.0847907, 0.0294109, 0.779206, 1, 1, 1, 0.333333, 1, 7.45058e-08, 1.19209e-07, 0, 0.601835, 0.0855144, 0.0306834, 0.793436, 1, 1, 1, 0.35, 1, 2.23517e-07, -1.78814e-07, -1.19209e-06, 0.587362, 0.0860408, 0.0316532, 0.804115, 1, 1, 1, 0.366667, 1, -2.23517e-07, -8.9407e-08, -4.76837e-07, 0.57702, 0.0863958, 0.0323324, 0.811504, 1, 1, 1, 0.383333, 1, 2.98023e-08, -2.68221e-07, -2.38419e-07, 0.570842, 0.0865999, 0.0327327, 0.815824, 1, 1, 1, 0.4, 1, 2.38419e-07, 5.96046e-08, 2.38419e-07, 0.568797, 0.086666, 0.0328643, 0.817238, 1, 1, 1 )
tracks/11/type = "transform"
tracks/11/path = NodePath("Armature/Skeleton:foot.L")
tracks/11/interp = 1
tracks/11/loop_wrap = true
tracks/11/imported = true
tracks/11/enabled = true
tracks/11/keys = PoolRealArray( 0, 1, 2.38419e-07, -2.38419e-07, 2.38419e-07, 3.88578e-16, 2.6077e-08, 7.45058e-09, 1, 1, 1, 1, 0.4, 1, 2.38419e-07, -2.38419e-07, 0, 1.49012e-08, 3.72529e-08, -8.88178e-16, 1, 1, 1, 1 )
tracks/12/type = "transform"
tracks/12/path = NodePath("Armature/Skeleton:toe.L")
tracks/12/interp = 1
tracks/12/loop_wrap = true
tracks/12/imported = true
tracks/12/enabled = true
tracks/12/keys = PoolRealArray( 0, 1, 3.39143e-07, -1.49012e-07, 1.19209e-07, -1.49012e-08, -4.38089e-09, 3.11434e-08, 1, 1, 1, 1, 0.4, 1, 2.89003e-07, -1.78814e-07, 5.96046e-08, 1.49012e-08, 3.96374e-09, 1.38208e-08, 1, 1, 1, 1 )
tracks/13/type = "transform"
tracks/13/path = NodePath("Armature/Skeleton:heel.02.L")
tracks/13/interp = 1
tracks/13/loop_wrap = true
tracks/13/imported = true
tracks/13/enabled = true
tracks/13/keys = PoolRealArray( 0, 1, -7.45058e-08, -5.96046e-08, 2.08616e-07, 1.11401e-08, -1.86855e-08, -2.98023e-08, 1, 1, 1, 1, 0.4, 1, -1.93715e-07, -1.19209e-07, 2.08616e-07, 1.85907e-08, 2.60179e-08, 1.49012e-08, 1, 1, 1, 1 )
tracks/14/type = "transform"
tracks/14/path = NodePath("Armature/Skeleton:thigh.R")
tracks/14/interp = 1
tracks/14/loop_wrap = true
tracks/14/imported = true
tracks/14/enabled = true
tracks/14/keys = PoolRealArray( 0, 1, 5.96046e-08, -1.19209e-07, 1.78814e-07, -0.471337, 0.0416872, -0.166923, 0.865009, 1, 1, 1, 0.133333, 1, 5.96046e-08, -2.38419e-07, 1.19209e-07, -0.32847, 0.106717, -0.10878, 0.932141, 1, 1, 1, 0.266667, 1, 0, -1.49012e-07, 2.98023e-08, -0.16947, 0.17032, -0.0449234, 0.969666, 1, 1, 1, 0.4, 1, 5.96046e-08, -1.78814e-07, 4.76837e-07, -0.0101224, 0.226183, 0.0183073, 0.97386, 1, 1, 1 )
tracks/15/type = "transform"
tracks/15/path = NodePath("Armature/Skeleton:shin.R")
tracks/15/interp = 1
tracks/15/loop_wrap = true
tracks/15/imported = true
tracks/15/enabled = true
tracks/15/keys = PoolRealArray( 0, 1, -2.23517e-07, 2.38419e-07, 7.15256e-07, 0.9607, 0.0528783, -0.051814, 0.267534, 1, 1, 1, 0.0166667, 1, -1.49012e-08, -2.98023e-08, 4.76837e-07, 0.96006, 0.052415, -0.0516148, 0.269951, 1, 1, 1, 0.0333333, 1, -7.45058e-08, 0, 2.38419e-07, 0.95808, 0.0510082, -0.0510083, 0.277271, 1, 1, 1, 0.05, 1, -2.98023e-08, 5.96046e-08, 7.15256e-07, 0.95461, 0.0486282, -0.0499784, 0.28958, 1, 1, 1, 0.0666667, 1, -2.23517e-07, 1.19209e-07, 7.15256e-07, 0.949419, 0.045244, -0.0485056, 0.306925, 1, 1, 1, 0.0833333, 1, 0, -1.49012e-07, 7.15256e-07, 0.9422, 0.0408294, -0.0465697, 0.329277, 1, 1, 1, 0.116667, 1, -1.49012e-07, -1.49012e-07, 7.15256e-07, 0.920184, 0.0288848, -0.0412504, 0.388234, 1, 1, 1, 0.183333, 1, -1.63913e-07, -5.96046e-08, 7.15256e-07, 0.837186, -0.00556021, -0.025272, 0.546306, 1, 1, 1, 0.233333, 1, -1.49012e-07, 3.27826e-07, 4.76837e-07, 0.745088, -0.0345919, -0.0110797, 0.665977, 1, 1, 1, 0.3, 1, -4.32134e-07, -2.98023e-08, 4.76837e-07, 0.625708, -0.0650065, 0.00453823, 0.777331, 1, 1, 1, 0.316667, 1, -1.49012e-07, -8.9407e-08, 9.53674e-07, 0.602731, -0.0702096, 0.0072937, 0.794816, 1, 1, 1, 0.333333, 1, -1.63913e-07, -5.96046e-08, 7.15256e-07, 0.583648, -0.0743985, 0.00953119, 0.808535, 1, 1, 1, 0.35, 1, 7.45058e-08, -2.98023e-07, 0, 0.568713, -0.0775975, 0.0112518, 0.81879, 1, 1, 1, 0.366667, 1, -1.49012e-07, 0, 4.76837e-07, 0.558048, -0.0798406, 0.0124645, 0.825865, 1, 1, 1, 0.383333, 1, 3.12924e-07, -2.98023e-07, -2.38419e-07, 0.551681, -0.0811641, 0.0131825, 0.829992, 1, 1, 1, 0.4, 1, -1.63913e-07, 2.98023e-08, 4.76837e-07, 0.549574, -0.0815994, 0.0134191, 0.831342, 1, 1, 1 )
tracks/16/type = "transform"
tracks/16/path = NodePath("Armature/Skeleton:foot.R")
tracks/16/interp = 1
tracks/16/loop_wrap = true
tracks/16/imported = true
tracks/16/enabled = true
tracks/16/keys = PoolRealArray( 0, 1, -5.96046e-08, -2.38419e-07, 1.19209e-07, -0.00117815, -0.00575368, 0.0848882, 0.996373, 1, 1, 1, 0.4, 1, -5.96046e-08, -4.76837e-07, 0, -0.00117817, -0.00575368, 0.0848882, 0.996373, 1, 1, 1 )
tracks/17/type = "transform"
tracks/17/path = NodePath("Armature/Skeleton:toe.R")
tracks/17/interp = 1
tracks/17/loop_wrap = true
tracks/17/imported = true
tracks/17/enabled = true
tracks/17/keys = PoolRealArray( 0, 1, -1.63412e-07, 5.96046e-08, -5.96046e-08, 4.47035e-08, -1.14143e-08, -2.12714e-08, 1, 1, 1, 1, 0.4, 1, -3.78514e-07, -5.96046e-08, -5.96046e-08, 1.49012e-08, 4.94714e-09, -2.9169e-08, 1, 1, 1, 1 )
tracks/18/type = "transform"
tracks/18/path = NodePath("Armature/Skeleton:heel.02.R")
tracks/18/interp = 1
tracks/18/loop_wrap = true
tracks/18/imported = true
tracks/18/enabled = true
tracks/18/keys = PoolRealArray( 0, 1, -8.9407e-08, 1.19209e-07, 1.04308e-07, 3.68959e-09, 1.86856e-08, 1.49012e-08, 1, 1, 1, 1, 0.4, 1, 1.78814e-07, 0, 3.57628e-07, 1.85907e-08, 2.61362e-08, -1.49012e-08, 1, 1, 1, 1 )
tracks/19/type = "transform"
tracks/19/path = NodePath("Armature/Skeleton:spine")
tracks/19/interp = 1
tracks/19/loop_wrap = true
tracks/19/imported = true
tracks/19/enabled = true
tracks/19/keys = PoolRealArray( 0, 1, -0.231923, 0.181616, 5.26549, -0.0173299, -0.00987421, 0.0228942, 0.999539, 1, 1, 1, 0.0166667, 1, -0.231923, 0.178678, 5.25409, -0.0271271, -0.00964931, 0.0229899, 0.999321, 1, 1, 1, 0.0333333, 1, -0.231923, 0.169803, 5.21967, -0.0369428, -0.009423, 0.0230836, 0.999006, 1, 1, 1, 0.05, 1, -0.231923, 0.154947, 5.16204, -0.0467741, -0.00919533, 0.0231752, 0.998594, 1, 1, 1, 0.0666667, 1, -0.231923, 0.134143, 5.08134, -0.0566181, -0.00896637, 0.0232648, 0.998085, 1, 1, 1, 0.1, 1, -0.231923, 0.0753423, 4.85326, -0.0763332, -0.00850482, 0.0234374, 0.996771, 1, 1, 1, 0.383333, 1, -0.231923, -0.583959, 2.29586, -0.24224, -0.00445824, 0.024531, 0.969896, 1, 1, 1, 0.4, 1, -0.231923, -0.586897, 2.28447, -0.251736, -0.00421756, 0.0245735, 0.967475, 1, 1, 1 )
tracks/20/type = "transform"
tracks/20/path = NodePath("Armature/Skeleton:spine.001")
tracks/20/interp = 1
tracks/20/loop_wrap = true
tracks/20/imported = true
tracks/20/enabled = true
tracks/20/keys = PoolRealArray( 0, 1, 7.45058e-09, 1.04308e-07, -6.55651e-07, 0.0613576, 0.0204244, 0.0119143, 0.997836, 1, 1, 1, 0.4, 1, 3.72529e-09, 1.3411e-07, -1.07288e-06, 0.0613576, 0.0204244, 0.0119143, 0.997836, 1, 1, 1 )
tracks/21/type = "transform"
tracks/21/path = NodePath("Armature/Skeleton:spine.002")
tracks/21/interp = 1
tracks/21/loop_wrap = true
tracks/21/imported = true
tracks/21/enabled = true
tracks/21/keys = PoolRealArray( 0, 1, -3.72529e-09, -4.17233e-07, 5.36442e-07, 0.683477, -0.0256588, -0.0710932, 0.726049, 1, 1, 1, 0.0166667, 1, 1.49012e-08, -3.8743e-07, 6.55651e-07, 0.681576, -0.0255874, -0.0708954, 0.727856, 1, 1, 1, 0.0333333, 1, 1.49012e-08, -2.98023e-07, 3.57628e-07, 0.675779, -0.0253698, -0.0702925, 0.733306, 1, 1, 1, 0.05, 1, 7.45058e-09, -3.57628e-07, 2.38419e-07, 0.665898, -0.0249988, -0.0692647, 0.7424, 1, 1, 1, 0.0666667, 1, 1.11759e-08, -2.98023e-07, 4.76837e-07, 0.651688, -0.0244653, -0.0677866, 0.755056, 1, 1, 1, 0.0833333, 1, -2.6077e-08, -3.57628e-07, 3.57628e-07, 0.632872, -0.023759, -0.0658294, 0.771087, 1, 1, 1, 0.116667, 1, -2.23517e-08, -4.17233e-07, 5.36442e-07, 0.580426, -0.0217901, -0.0603741, 0.81178, 1, 1, 1, 0.183333, 1, -7.45058e-09, -3.57628e-07, 4.17233e-07, 0.417356, -0.0156682, -0.0434121, 0.90757, 1, 1, 1, 0.233333, 1, -4.47035e-08, -5.66244e-07, 5.96046e-07, 0.267161, -0.0100296, -0.0277893, 0.963199, 1, 1, 1, 0.3, 1, -4.47035e-08, -6.25849e-07, 4.17233e-07, 0.0977593, -0.00367003, -0.0101686, 0.995151, 1, 1, 1, 0.316667, 1, 1.49012e-08, -5.36442e-07, 6.55651e-07, 0.0675239, -0.00253495, -0.00702363, 0.99769, 1, 1, 1, 0.333333, 1, 1.49012e-08, -2.98023e-07, 1.19209e-07, 0.0429064, -0.00161078, -0.00446301, 0.999068, 1, 1, 1, 0.35, 1, 7.45058e-09, -5.06639e-07, 4.17233e-07, 0.0239387, -0.000898692, -0.00249002, 0.99971, 1, 1, 1, 0.366667, 1, 1.49012e-08, -5.96046e-08, -1.78814e-07, 0.0105493, -0.000396042, -0.00109731, 0.999944, 1, 1, 1, 0.383333, 1, 7.45058e-09, -3.8743e-07, 5.96046e-07, 0.00261548, -9.81861e-05, -0.000272052, 0.999997, 1, 1, 1, 0.4, 1, 7.45058e-09, -5.96046e-08, 2.38419e-07, 6.87457e-18, -1.35064e-09, -1.36457e-09, 1, 1, 1, 1 )
tracks/22/type = "transform"
tracks/22/path = NodePath("Armature/Skeleton:spine.003")
tracks/22/interp = 1
tracks/22/loop_wrap = true
tracks/22/imported = true
tracks/22/enabled = true
tracks/22/keys = PoolRealArray( 0, 1, -8.20743e-09, 6.25849e-07, 1.54972e-06, -2.53103e-17, 5.71989e-09, -4.18484e-09, 1, 1, 1, 1, 0.4, 1, 3.72531e-09, -8.9407e-08, 1.66893e-06, -4.47035e-08, -7.30598e-10, -1.50523e-09, 1, 1, 1, 1 )
tracks/23/type = "transform"
tracks/23/path = NodePath("Armature/Skeleton:spine.004")
tracks/23/interp = 1
tracks/23/loop_wrap = true
tracks/23/imported = true
tracks/23/enabled = true
tracks/23/keys = PoolRealArray( 0, 1, 1.49012e-08, 4.47035e-08, -2.74181e-06, -0.00998374, -0.00151542, -9.4092e-10, 0.999949, 1, 1, 1, 0.4, 1, -2.98023e-08, -2.08616e-07, -2.74181e-06, -0.00998374, -0.00151542, 2.79229e-09, 0.999949, 1, 1, 1 )
tracks/24/type = "transform"
tracks/24/path = NodePath("Armature/Skeleton:spine.005")
tracks/24/interp = 1
tracks/24/loop_wrap = true
tracks/24/imported = true
tracks/24/enabled = true
tracks/24/keys = PoolRealArray( 0, 1, 1.11757e-08, 3.65078e-07, 9.90927e-07, -3.88394e-19, 6.10015e-10, -6.50985e-10, 1, 1, 1, 1, 0.4, 1, -3.35278e-08, 5.43892e-07, 8.49366e-07, -2.98023e-08, 2.08013e-09, 4.35251e-09, 1, 1, 1, 1 )
tracks/25/type = "transform"
tracks/25/path = NodePath("Armature/Skeleton:head")
tracks/25/interp = 1
tracks/25/loop_wrap = true
tracks/25/imported = true
tracks/25/enabled = true
tracks/25/keys = PoolRealArray( 0, 1, -1.86284e-09, 9.53674e-07, -1.49012e-07, -0.078458, 0.0955497, 0.0277141, 0.991941, 1, 1, 1, 0.4, 1, -1.11761e-08, 1.3113e-06, -3.8743e-07, -0.078458, 0.0955497, 0.0277141, 0.991941, 1, 1, 1 )
