[gd_resource type="Animation" format=2]

[resource]
resource_name = "Jimpin"
length = 0.0166667
loop = true
tracks/0/type = "transform"
tracks/0/path = NodePath("Armature")
tracks/0/interp = 1
tracks/0/loop_wrap = true
tracks/0/imported = true
tracks/0/enabled = true
tracks/0/keys = PoolRealArray( 0, 1, -0.0453508, 0.0431511, -0.116433, 0, 0, 0, 1, 1, 1, 1, 0.0166667, 1, -0.0453508, 0.0431511, -0.116433, 0, 0, 0, 1, 1, 1, 1 )
tracks/1/type = "transform"
tracks/1/path = NodePath("Armature/Skeleton:shoulder.L")
tracks/1/interp = 1
tracks/1/loop_wrap = true
tracks/1/imported = true
tracks/1/enabled = true
tracks/1/keys = PoolRealArray( 0, 1, 5.96046e-08, 1.66893e-06, 4.00469e-08, 6.98492e-10, 1.23982e-08, -6.51926e-09, 1, 1, 1, 1, 0.0166667, 1, 5.96046e-08, 1.66893e-06, 4.00469e-08, 6.98492e-10, 1.23982e-08, -6.51926e-09, 1, 1, 1, 1 )
tracks/2/type = "transform"
tracks/2/path = NodePath("Armature/Skeleton:upper_arm.L")
tracks/2/interp = 1
tracks/2/loop_wrap = true
tracks/2/imported = true
tracks/2/enabled = true
tracks/2/keys = PoolRealArray( 0, 1, 1.2517e-06, -1.19209e-07, 0, 0.113329, -0.453366, 0.101861, 0.878203, 1, 1, 1, 0.0166667, 1, 1.2517e-06, -1.19209e-07, 0, 0.113329, -0.453366, 0.101861, 0.878203, 1, 1, 1 )
tracks/3/type = "transform"
tracks/3/path = NodePath("Armature/Skeleton:forearm.L")
tracks/3/interp = 1
tracks/3/loop_wrap = true
tracks/3/imported = true
tracks/3/enabled = true
tracks/3/keys = PoolRealArray( 0, 1, 2.98023e-07, 2.68221e-07, 4.76837e-07, 0.165917, 0.0199345, 0.0170464, 0.985791, 1, 1, 1, 0.0166667, 1, 2.98023e-07, 2.68221e-07, 4.76837e-07, 0.165917, 0.0199345, 0.0170464, 0.985791, 1, 1, 1 )
tracks/4/type = "transform"
tracks/4/path = NodePath("Armature/Skeleton:hand.L")
tracks/4/interp = 1
tracks/4/loop_wrap = true
tracks/4/imported = true
tracks/4/enabled = true
tracks/4/keys = PoolRealArray( 0, 1, -1.90735e-06, 8.19564e-07, 4.76837e-07, -1.49012e-08, 2.23517e-08, -4.37722e-08, 1, 1, 1, 1, 0.0166667, 1, -1.90735e-06, 8.19564e-07, 4.76837e-07, -1.49012e-08, 2.23517e-08, -4.37722e-08, 1, 1, 1, 1 )
tracks/5/type = "transform"
tracks/5/path = NodePath("Armature/Skeleton:shoulder.R")
tracks/5/interp = 1
tracks/5/loop_wrap = true
tracks/5/imported = true
tracks/5/enabled = true
tracks/5/keys = PoolRealArray( 0, 1, -2.38419e-07, 1.49012e-06, 4.09782e-08, -1.16415e-09, -2.69938e-08, 7.45058e-09, 1, 1, 1, 1, 0.0166667, 1, -2.38419e-07, 1.49012e-06, 4.09782e-08, -1.16415e-09, -2.69938e-08, 7.45058e-09, 1, 1, 1, 1 )
tracks/6/type = "transform"
tracks/6/path = NodePath("Armature/Skeleton:upper_arm.R")
tracks/6/interp = 1
tracks/6/loop_wrap = true
tracks/6/imported = true
tracks/6/enabled = true
tracks/6/keys = PoolRealArray( 0, 1, 1.01328e-06, 2.68221e-07, 2.38419e-07, -0.198924, 0.367688, -0.21508, 0.882596, 1, 1, 1, 0.0166667, 1, 1.01328e-06, 2.68221e-07, 2.38419e-07, -0.198924, 0.367688, -0.21508, 0.882596, 1, 1, 1 )
tracks/7/type = "transform"
tracks/7/path = NodePath("Armature/Skeleton:forearm.R")
tracks/7/interp = 1
tracks/7/loop_wrap = true
tracks/7/imported = true
tracks/7/enabled = true
tracks/7/keys = PoolRealArray( 0, 1, -2.80142e-06, -2.08616e-07, -4.76837e-07, 0.150041, 0.0150385, -0.0181061, 0.9884, 1, 1, 1, 0.0166667, 1, -2.80142e-06, -2.08616e-07, -4.76837e-07, 0.150041, 0.0150385, -0.0181061, 0.9884, 1, 1, 1 )
tracks/8/type = "transform"
tracks/8/path = NodePath("Armature/Skeleton:hand.R")
tracks/8/interp = 1
tracks/8/loop_wrap = true
tracks/8/imported = true
tracks/8/enabled = true
tracks/8/keys = PoolRealArray( 0, 1, 2.78652e-06, -5.66244e-07, -3.57628e-07, 2.23517e-08, 7.45058e-09, 6.51926e-09, 1, 1, 1, 1, 0.0166667, 1, 2.78652e-06, -5.66244e-07, -3.57628e-07, 2.23517e-08, 7.45058e-09, 6.51926e-09, 1, 1, 1, 1 )
tracks/9/type = "transform"
tracks/9/path = NodePath("Armature/Skeleton:thigh.L")
tracks/9/interp = 1
tracks/9/loop_wrap = true
tracks/9/imported = true
tracks/9/enabled = true
tracks/9/keys = PoolRealArray( 0, 1, 0, -1.19209e-07, 1.3411e-06, -0.351351, -0.165575, 0.0180205, 0.92131, 1, 1, 1, 0.0166667, 1, 0, -1.19209e-07, 1.3411e-06, -0.351351, -0.165575, 0.0180205, 0.92131, 1, 1, 1 )
tracks/10/type = "transform"
tracks/10/path = NodePath("Armature/Skeleton:shin.L")
tracks/10/interp = 1
tracks/10/loop_wrap = true
tracks/10/imported = true
tracks/10/enabled = true
tracks/10/keys = PoolRealArray( 0, 1, 2.08616e-07, 1.19209e-07, -4.76837e-07, 0.572787, 0.00276383, 0.00756748, 0.819665, 1, 1, 1, 0.0166667, 1, 2.08616e-07, 1.19209e-07, -4.76837e-07, 0.572787, 0.00276383, 0.00756748, 0.819665, 1, 1, 1 )
tracks/11/type = "transform"
tracks/11/path = NodePath("Armature/Skeleton:foot.L")
tracks/11/interp = 1
tracks/11/loop_wrap = true
tracks/11/imported = true
tracks/11/enabled = true
tracks/11/keys = PoolRealArray( 0, 1, 2.38419e-07, -7.15256e-07, 4.76837e-07, 7.45058e-07, -9.38773e-07, -2.90572e-07, 1, 1, 1, 1, 0.0166667, 1, 2.38419e-07, -7.15256e-07, 4.76837e-07, 7.45058e-07, -9.38773e-07, -2.90572e-07, 1, 1, 1, 1 )
tracks/12/type = "transform"
tracks/12/path = NodePath("Armature/Skeleton:toe.L")
tracks/12/interp = 1
tracks/12/loop_wrap = true
tracks/12/imported = true
tracks/12/enabled = true
tracks/12/keys = PoolRealArray( 0, 1, 2.5278e-07, -3.27826e-07, -2.98023e-07, 0.217806, -0.000523235, -0.028506, 0.975576, 1, 1, 1, 0.0166667, 1, 2.5278e-07, -3.27826e-07, -2.98023e-07, 0.217806, -0.000523235, -0.028506, 0.975576, 1, 1, 1 )
tracks/13/type = "transform"
tracks/13/path = NodePath("Armature/Skeleton:heel.02.L")
tracks/13/interp = 1
tracks/13/loop_wrap = true
tracks/13/imported = true
tracks/13/enabled = true
tracks/13/keys = PoolRealArray( 0, 1, 1.93715e-07, -1.78814e-07, 2.38419e-07, 2.60412e-08, 1.11167e-08, -2.98023e-08, 1, 1, 1, 1, 0.0166667, 1, 1.93715e-07, -1.78814e-07, 2.38419e-07, 2.60412e-08, 1.11167e-08, -2.98023e-08, 1, 1, 1, 1 )
tracks/14/type = "transform"
tracks/14/path = NodePath("Armature/Skeleton:thigh.R")
tracks/14/interp = 1
tracks/14/loop_wrap = true
tracks/14/imported = true
tracks/14/enabled = true
tracks/14/keys = PoolRealArray( 0, 1, 5.96046e-08, 0, 6.55651e-07, -0.35426, 0.158199, -0.005658, 0.921651, 1, 1, 1, 0.0166667, 1, 5.96046e-08, 0, 6.55651e-07, -0.35426, 0.158199, -0.005658, 0.921651, 1, 1, 1 )
tracks/15/type = "transform"
tracks/15/path = NodePath("Armature/Skeleton:shin.R")
tracks/15/interp = 1
tracks/15/loop_wrap = true
tracks/15/imported = true
tracks/15/enabled = true
tracks/15/keys = PoolRealArray( 0, 1, -1.78814e-07, 5.96046e-08, 7.15256e-07, 0.790667, 0.00394876, -0.0398102, 0.610938, 1, 1, 1, 0.0166667, 1, -1.78814e-07, 5.96046e-08, 7.15256e-07, 0.790667, 0.00394876, -0.0398102, 0.610938, 1, 1, 1 )
tracks/16/type = "transform"
tracks/16/path = NodePath("Armature/Skeleton:foot.R")
tracks/16/interp = 1
tracks/16/loop_wrap = true
tracks/16/imported = true
tracks/16/enabled = true
tracks/16/keys = PoolRealArray( 0, 1, -1.78814e-07, -2.38419e-07, 0, 1.49012e-08, -1.86264e-08, 2.22045e-16, 1, 1, 1, 1, 0.0166667, 1, -1.78814e-07, -2.38419e-07, 0, 1.49012e-08, -1.86264e-08, 2.22045e-16, 1, 1, 1, 1 )
tracks/17/type = "transform"
tracks/17/path = NodePath("Armature/Skeleton:toe.R")
tracks/17/interp = 1
tracks/17/loop_wrap = true
tracks/17/imported = true
tracks/17/enabled = true
tracks/17/keys = PoolRealArray( 0, 1, 5.6671e-08, -2.98023e-08, 5.96046e-08, 2.98023e-08, -1.18613e-08, -1.43421e-09, 1, 1, 1, 1, 0.0166667, 1, 5.6671e-08, -2.98023e-08, 5.96046e-08, 2.98023e-08, -1.18613e-08, -1.43421e-09, 1, 1, 1, 1 )
tracks/18/type = "transform"
tracks/18/path = NodePath("Armature/Skeleton:heel.02.R")
tracks/18/interp = 1
tracks/18/loop_wrap = true
tracks/18/imported = true
tracks/18/enabled = true
tracks/18/keys = PoolRealArray( 0, 1, 1.19209e-07, 2.38419e-07, -4.47035e-08, -1.12116e-08, 5.22131e-08, 4.47035e-08, 1, 1, 1, 1, 0.0166667, 1, 1.19209e-07, 2.38419e-07, -4.47035e-08, -1.12116e-08, 5.22131e-08, 4.47035e-08, 1, 1, 1, 1 )
tracks/19/type = "transform"
tracks/19/path = NodePath("Armature/Skeleton:spine")
tracks/19/interp = 1
tracks/19/loop_wrap = true
tracks/19/imported = true
tracks/19/enabled = true
tracks/19/keys = PoolRealArray( 0, 1, 0, 0.330917, 1.28361, 0.119126, 0.0093837, 0.00199276, 0.992833, 1, 1, 1, 0.0166667, 1, 0, 0.330917, 1.28361, 0.119126, 0.0093837, 0.00199276, 0.992833, 1, 1, 1 )
tracks/20/type = "transform"
tracks/20/path = NodePath("Armature/Skeleton:spine.001")
tracks/20/interp = 1
tracks/20/loop_wrap = true
tracks/20/imported = true
tracks/20/enabled = true
tracks/20/keys = PoolRealArray( 0, 1, -1.9907e-08, -2.01166e-07, -1.01328e-06, -7.45058e-09, 2.38385e-10, -2.7762e-11, 1, 1, 1, 1, 0.0166667, 1, -1.9907e-08, -2.01166e-07, -1.01328e-06, -7.45058e-09, 2.38385e-10, -2.7762e-11, 1, 1, 1, 1 )
tracks/21/type = "transform"
tracks/21/path = NodePath("Armature/Skeleton:spine.002")
tracks/21/interp = 1
tracks/21/loop_wrap = true
tracks/21/imported = true
tracks/21/enabled = true
tracks/21/keys = PoolRealArray( 0, 1, -8.84756e-09, -7.45058e-07, 8.9407e-07, 1.49012e-08, -4.97583e-10, -3.02033e-10, 1, 1, 1, 1, 0.0166667, 1, -8.84756e-09, -7.45058e-07, 8.9407e-07, 1.49012e-08, -4.97583e-10, -3.02033e-10, 1, 1, 1, 1 )
tracks/22/type = "transform"
tracks/22/path = NodePath("Armature/Skeleton:spine.003")
tracks/22/interp = 1
tracks/22/loop_wrap = true
tracks/22/imported = true
tracks/22/enabled = true
tracks/22/keys = PoolRealArray( 0, 1, 3.02672e-09, 3.27826e-07, 2.02656e-06, -1.49012e-08, 9.14753e-11, 1.70242e-10, 1, 1, 1, 1, 0.0166667, 1, 3.02672e-09, 3.27826e-07, 2.02656e-06, -1.49012e-08, 9.14753e-11, 1.70242e-10, 1, 1, 1, 1 )
tracks/23/type = "transform"
tracks/23/path = NodePath("Armature/Skeleton:spine.004")
tracks/23/interp = 1
tracks/23/loop_wrap = true
tracks/23/imported = true
tracks/23/enabled = true
tracks/23/keys = PoolRealArray( 0, 1, -1.76951e-08, 2.16067e-07, -2.38419e-06, -1.46208e-19, 2.58158e-10, -6.36205e-10, 1, 1, 1, 1, 0.0166667, 1, -1.76951e-08, 2.16067e-07, -2.38419e-06, -1.46208e-19, 2.58158e-10, -6.36205e-10, 1, 1, 1, 1 )
tracks/24/type = "transform"
tracks/24/path = NodePath("Armature/Skeleton:spine.005")
tracks/24/interp = 1
tracks/24/loop_wrap = true
tracks/24/imported = true
tracks/24/enabled = true
tracks/24/keys = PoolRealArray( 0, 1, -1.39698e-08, -8.9407e-08, 4.76837e-07, -7.45058e-08, 9.30179e-10, -7.25159e-10, 1, 1, 1, 1, 0.0166667, 1, -1.39698e-08, -8.9407e-08, 4.76837e-07, -7.45058e-08, 9.30179e-10, -7.25159e-10, 1, 1, 1, 1 )
tracks/25/type = "transform"
tracks/25/path = NodePath("Armature/Skeleton:head")
tracks/25/interp = 1
tracks/25/loop_wrap = true
tracks/25/imported = true
tracks/25/enabled = true
tracks/25/keys = PoolRealArray( 0, 1, 4.65653e-09, 4.76837e-07, 2.98023e-07, 1.85373e-19, -7.49253e-10, -4.77776e-10, 1, 1, 1, 1, 0.0166667, 1, 4.65653e-09, 4.76837e-07, 2.98023e-07, 1.85373e-19, -7.49253e-10, -4.77776e-10, 1, 1, 1, 1 )
