[gd_scene load_steps=12 format=2]

[ext_resource path="res://shaders/shader1.shader" type="Shader" id=1]
[ext_resource path="res://scenes/levels/1/LevelOne1.obj" type="ArrayMesh" id=2]
[ext_resource path="res://scenes/levels/1/ruifv1.png" type="Texture" id=3]
[ext_resource path="res://scenes/levels/1/waw.png" type="Texture" id=4]
[ext_resource path="res://scenes/levels/1/flair.png" type="Texture" id=5]
[ext_resource path="res://scenes/levels/1/vent.png" type="Texture" id=6]

[sub_resource type="ShaderMaterial" id=3]
shader = ExtResource( 1 )
shader_param/albedo = Color( 1, 1, 1, 1 )
shader_param/texture_albedo = ExtResource( 5 )

[sub_resource type="ShaderMaterial" id=2]
shader = ExtResource( 1 )
shader_param/albedo = Color( 1, 1, 1, 1 )
shader_param/texture_albedo = ExtResource( 3 )

[sub_resource type="ShaderMaterial" id=5]
shader = ExtResource( 1 )
shader_param/albedo = Color( 1, 1, 1, 1 )
shader_param/texture_albedo = ExtResource( 6 )

[sub_resource type="ShaderMaterial" id=4]
shader = ExtResource( 1 )
shader_param/albedo = Color( 1, 1, 1, 1 )
shader_param/texture_albedo = ExtResource( 4 )

[sub_resource type="ConcavePolygonShape" id=6]
data = PoolVector3Array( 4.415, 0.0665, -1.0594, 4.415, 0.0665, 0.9406, -4.415, 0.0665, -4.415, 10.0268, 0.0665, 4.415, 10.0268, 0.0665, 0.9406, 12.9702, 0.0665, 4.415, 18.8569, 3.406, 4.415, 15.9135, 1.7643, -4.415, 18.8569, 3.406, -4.415, 12.9702, 0.0665, 4.415, 15.9135, -1.6121, -4.415, 15.9135, -1.6121, 4.415, 4.415, 0.0665, -1.0594, 10.0268, 0.0665, 0.9406, 4.415, 0.0665, 0.9406, 10.052, -6.5785, -11.0177, 10.3342, -6.5785, -11.0177, 10.052, -6.5785, -6.1591, 12.6216, 0.0479, -4.415, 10.6216, 0.0479, -6.1591, 12.6216, 0.0479, -6.1591, 4.415, 0.0665, -4.415, 4.415, 0.0665, -1.0594, -4.415, 0.0665, -4.415, -4.415, 0.0665, 4.415, -4.415, 0.0665, -4.415, 4.415, 0.0665, 0.9406, 4.415, 0.0665, 4.415, -4.415, 0.0665, 4.415, 4.415, 0.0665, 0.9406, 12.9702, 0.0665, -4.415, 12.9702, 0.0665, 4.415, 10.0268, 0.0665, 0.9406, 12.6216, 0.0479, -4.415, 12.9702, 0.0665, -4.415, 10.0268, 0.0665, -1.0594, 12.9702, 0.0665, -4.415, 10.0268, 0.0665, 0.9406, 10.0268, 0.0665, -1.0594, 10.6216, 0.0479, -4.415, 12.6216, 0.0479, -4.415, 10.0268, 0.0665, -1.0594, 10.0268, 0.0665, -4.415, 10.6216, 0.0479, -4.415, 10.0268, 0.0665, -1.0594, 15.9135, 1.7643, 4.415, 15.9135, 1.7643, -4.415, 18.8569, 3.406, 4.415, 12.9702, 0.0665, -4.415, 15.9135, -1.6121, -4.415, 12.9702, 0.0665, 4.415, 10.0268, 0.0665, -1.0594, 10.0268, 0.0665, 0.9406, 4.415, 0.0665, -1.0594, 14.9106, -6.5785, -6.1591, 10.052, -6.5785, -6.1591, 13.3135, -6.5785, -11.0177, 14.9106, -6.5785, -11.0177, 14.9106, -6.5785, -6.1591, 13.3135, -6.5785, -11.0177, 10.3342, -6.5785, -11.0177, 13.3135, -6.5785, -11.0177, 10.052, -6.5785, -6.1591, 10.6216, 0.0479, -4.415, 10.6216, 0.0479, -6.1591, 12.6216, 0.0479, -4.415, -4.415, 4.2137, -4.415, 4.415, 4.2137, 4.415, 4.415, 4.2137, -4.415, 10.0268, 4.2137, -4.415, 12.9702, 4.2137, 4.415, 12.9702, 4.2137, -4.415, 15.9135, 4.2137, -4.415, 18.8569, 4.2137, 4.415, 18.8569, 4.2137, -4.415, 12.9702, 4.2137, -4.415, 15.9135, 4.2137, 4.415, 15.9135, 4.2137, -4.415, 10.0268, 1.9174, 0.9406, 4.415, 1.9174, -1.0594, 4.415, 1.9174, 0.9406, 14.9106, 4.2341, -6.1591, 10.052, 4.2341, -11.0177, 10.052, 4.2341, -6.1591, 10.6216, 1.9174, -6.1591, 12.6216, 1.9174, -4.415, 12.6216, 1.9174, -6.1591, -4.415, 4.2137, 4.415, 4.415, 4.2137, 4.415, -4.415, 4.2137, -4.415, 10.0268, 4.2137, 4.415, 12.9702, 4.2137, 4.415, 10.0268, 4.2137, -4.415, 15.9135, 4.2137, 4.415, 18.8569, 4.2137, 4.415, 15.9135, 4.2137, -4.415, 12.9702, 4.2137, 4.415, 15.9135, 4.2137, 4.415, 12.9702, 4.2137, -4.415, 10.0268, 1.9174, -1.0594, 4.415, 1.9174, -1.0594, 10.0268, 1.9174, 0.9406, 14.9106, 4.2341, -11.0177, 10.052, 4.2341, -11.0177, 14.9106, 4.2341, -6.1591, 10.6216, 1.9174, -4.415, 12.6216, 1.9174, -4.415, 10.6216, 1.9174, -6.1591, 10.3342, -6.6265, -14.0061, 13.3135, -6.5785, -11.0177, 10.3342, -6.5785, -11.0177, 11.4385, 0.8156, -12.4085, 11.4385, 0.8104, -11.0177, 11.4385, 1.5811, -11.0177, 11.3749, -3.1248, -12.9437, 10.6042, -3.707, -13.0775, 10.6042, -2.8025, -12.9437, 12.2092, 0.8156, -12.4085, 12.2092, 0.8104, -11.0177, 12.2092, 0.3323, -11.8082, 12.2092, 0.3323, -11.8082, 11.4385, 0.8104, -11.0177, 11.4385, 0.3323, -11.8082, 11.4385, 0.8156, -12.4085, 12.2092, 1.5811, -11.0177, 12.2092, 0.8156, -12.4085, 11.3749, -3.707, -13.0775, 10.3342, -5.0022, -14.0445, 10.6042, -3.707, -13.0775, 10.6042, -2.8025, -12.9437, 10.6042, -3.6736, -12.3075, 10.6042, -2.8724, -12.2076, 11.3749, -3.6736, -12.3075, 11.3749, -3.1248, -12.9437, 11.3749, -3.1948, -12.2076, 10.6042, -3.6736, -12.3075, 11.3749, -3.1948, -12.2076, 10.6042, -2.8724, -12.2076, 10.3342, -5.0022, -14.0445, 10.3342, -6.5785, -11.0177, 10.3342, -4.9764, -11.0177, 10.3342, -5.0022, -14.0445, 10.6042, -3.6736, -12.3075, 10.6042, -3.707, -13.0775, 11.3749, -3.6736, -12.3075, 13.3135, -5.0022, -14.0445, 11.3749, -3.707, -13.0775, 10.3342, -4.9764, -11.0177, 11.3749, -3.6736, -12.3075, 10.6042, -3.6736, -12.3075, 13.3135, -6.5785, -11.0177, 13.3135, -5.0022, -14.0445, 13.3135, -4.9764, -11.0177, 13.3135, -5.0022, -14.0445, 10.3342, -6.6265, -14.0061, 10.3342, -5.0022, -14.0445, 11.4385, 0.3323, -11.8082, 12.2092, 0.0596, -11.908, 12.2092, 0.3323, -11.8082, 12.3139, -1.156, -12.0079, 12.2092, 0.0596, -11.908, 11.4385, -0.5083, -11.908, 12.3139, -1.7449, -12.1078, 13.0846, -0.9438, -12.0079, 12.3139, -1.156, -12.0079, 12.3139, -1.7449, -12.1078, 11.3749, -3.1948, -12.2076, 13.0846, -2.0673, -12.1078, 12.2092, 0.3323, -11.8082, 12.2092, 0.0596, -12.5423, 12.2092, 0.8156, -12.4085, 12.2092, 0.0596, -11.908, 13.0846, -0.6671, -12.6761, 12.2092, 0.0596, -12.5423, 13.0846, -0.9438, -12.0079, 13.0846, -1.894, -12.8099, 13.0846, -0.6671, -12.6761, 13.0846, -2.0673, -12.1078, 11.3749, -3.1248, -12.9437, 13.0846, -1.894, -12.8099, 11.4385, -0.5083, -12.5423, 11.4385, 0.3323, -11.8082, 11.4385, 0.8156, -12.4085, 11.4385, -0.5083, -12.5423, 12.3139, -1.156, -12.0079, 11.4385, -0.5083, -11.908, 12.3139, -1.5716, -12.8099, 12.3139, -1.156, -12.0079, 12.3139, -0.8793, -12.6761, 10.6042, -2.8025, -12.9437, 12.3139, -1.7449, -12.1078, 12.3139, -1.5716, -12.8099, 12.2092, 0.0596, -12.5423, 11.4385, 0.8156, -12.4085, 12.2092, 0.8156, -12.4085, 12.2092, 0.0596, -12.5423, 12.3139, -0.8793, -12.6761, 11.4385, -0.5083, -12.5423, 13.0846, -0.6671, -12.6761, 12.3139, -1.5716, -12.8099, 12.3139, -0.8793, -12.6761, 11.3749, -3.1248, -12.9437, 12.3139, -1.5716, -12.8099, 13.0846, -1.894, -12.8099, 13.3135, -6.6265, -14.0061, 13.3135, -6.5785, -11.0177, 10.3342, -6.6265, -14.0061, 11.4385, 0.3323, -11.8082, 11.4385, 0.8104, -11.0177, 11.4385, 0.8156, -12.4085, 11.3749, -3.707, -13.0775, 10.6042, -3.707, -13.0775, 11.3749, -3.1248, -12.9437, 12.2092, 1.5811, -11.0177, 12.2092, 0.8104, -11.0177, 12.2092, 0.8156, -12.4085, 12.2092, 0.8104, -11.0177, 11.4385, 0.8104, -11.0177, 12.2092, 0.3323, -11.8082, 11.4385, 1.5811, -11.0177, 12.2092, 1.5811, -11.0177, 11.4385, 0.8156, -12.4085, 13.3135, -5.0022, -14.0445, 10.3342, -5.0022, -14.0445, 11.3749, -3.707, -13.0775, 10.6042, -3.707, -13.0775, 10.6042, -3.6736, -12.3075, 10.6042, -2.8025, -12.9437, 11.3749, -3.707, -13.0775, 11.3749, -3.1248, -12.9437, 11.3749, -3.6736, -12.3075, 11.3749, -3.6736, -12.3075, 11.3749, -3.1948, -12.2076, 10.6042, -3.6736, -12.3075, 10.3342, -6.6265, -14.0061, 10.3342, -6.5785, -11.0177, 10.3342, -5.0022, -14.0445, 10.3342, -4.9764, -11.0177, 10.6042, -3.6736, -12.3075, 10.3342, -5.0022, -14.0445, 13.3135, -4.9764, -11.0177, 13.3135, -5.0022, -14.0445, 11.3749, -3.6736, -12.3075, 13.3135, -4.9764, -11.0177, 11.3749, -3.6736, -12.3075, 10.3342, -4.9764, -11.0177, 13.3135, -6.6265, -14.0061, 13.3135, -5.0022, -14.0445, 13.3135, -6.5785, -11.0177, 13.3135, -6.6265, -14.0061, 10.3342, -6.6265, -14.0061, 13.3135, -5.0022, -14.0445, 11.4385, -0.5083, -11.908, 12.2092, 0.0596, -11.908, 11.4385, 0.3323, -11.8082, 13.0846, -0.9438, -12.0079, 12.2092, 0.0596, -11.908, 12.3139, -1.156, -12.0079, 13.0846, -2.0673, -12.1078, 13.0846, -0.9438, -12.0079, 12.3139, -1.7449, -12.1078, 10.6042, -2.8724, -12.2076, 11.3749, -3.1948, -12.2076, 12.3139, -1.7449, -12.1078, 12.2092, 0.0596, -11.908, 12.2092, 0.0596, -12.5423, 12.2092, 0.3323, -11.8082, 13.0846, -0.9438, -12.0079, 13.0846, -0.6671, -12.6761, 12.2092, 0.0596, -11.908, 13.0846, -2.0673, -12.1078, 13.0846, -1.894, -12.8099, 13.0846, -0.9438, -12.0079, 11.3749, -3.1948, -12.2076, 11.3749, -3.1248, -12.9437, 13.0846, -2.0673, -12.1078, 11.4385, -0.5083, -11.908, 11.4385, 0.3323, -11.8082, 11.4385, -0.5083, -12.5423, 12.3139, -0.8793, -12.6761, 12.3139, -1.156, -12.0079, 11.4385, -0.5083, -12.5423, 12.3139, -1.7449, -12.1078, 12.3139, -1.156, -12.0079, 12.3139, -1.5716, -12.8099, 10.6042, -2.8724, -12.2076, 12.3139, -1.7449, -12.1078, 10.6042, -2.8025, -12.9437, 11.4385, -0.5083, -12.5423, 11.4385, 0.8156, -12.4085, 12.2092, 0.0596, -12.5423, 13.0846, -0.6671, -12.6761, 12.3139, -0.8793, -12.6761, 12.2092, 0.0596, -12.5423, 13.0846, -1.894, -12.8099, 12.3139, -1.5716, -12.8099, 13.0846, -0.6671, -12.6761, 10.6042, -2.8025, -12.9437, 12.3139, -1.5716, -12.8099, 11.3749, -3.1248, -12.9437, 4.415, 4.2137, 4.415, 4.415, 1.9174, 0.9406, 4.415, 4.2137, -4.415, 4.415, 4.2137, 4.415, -4.415, 0.0665, 4.415, 4.415, 0.0665, 4.415, -4.415, 4.2137, -4.415, -4.415, 0.0665, 4.415, -4.415, 4.2137, 4.415, 4.415, 0.0665, -4.415, -4.415, 4.2137, -4.415, 4.415, 4.2137, -4.415, 18.8569, 4.2137, -4.415, 18.8569, 3.406, 4.415, 18.8569, 3.406, -4.415, 12.9702, 4.2137, 4.415, 10.0268, 0.0665, 4.415, 12.9702, 0.0665, 4.415, 10.0268, 1.9174, -1.0594, 10.0268, 1.9174, 0.9406, 10.0268, 4.2137, -4.415, 12.6216, 1.9174, -4.415, 10.6216, 1.9174, -4.415, 12.9702, 4.2137, -4.415, 18.8569, 3.406, -4.415, 15.9135, 4.2137, -4.415, 18.8569, 4.2137, -4.415, 15.9135, 1.7643, -4.415, 12.9702, 4.2137, -4.415, 15.9135, 4.2137, -4.415, 15.9135, 4.2137, 4.415, 18.8569, 3.406, 4.415, 18.8569, 4.2137, 4.415, 12.9702, 4.2137, 4.415, 15.9135, 1.7643, 4.415, 15.9135, 4.2137, 4.415, 15.9135, 1.7643, 4.415, 12.9702, 0.0665, 4.415, 15.9135, -1.6121, 4.415, 15.9135, -1.6121, 4.415, 15.9135, 1.7643, -4.415, 15.9135, 1.7643, 4.415, 12.9702, 0.0665, -4.415, 15.9135, 1.7643, -4.415, 15.9135, -1.6121, -4.415, 4.415, 1.9174, -1.0594, 10.0268, 0.0665, -1.0594, 4.415, 0.0665, -1.0594, 4.415, 0.0665, 0.9406, 10.0268, 1.9174, 0.9406, 4.415, 1.9174, 0.9406, 14.9106, 4.2341, -11.0177, 14.9106, -4.9236, -6.1591, 14.9106, -4.9236, -11.0177, 10.6216, 0.0479, -6.1591, 10.052, -4.9236, -6.1591, 12.6216, 0.0479, -6.1591, 10.052, 4.2341, -6.1591, 10.052, -4.9236, -11.0177, 10.052, -4.9236, -6.1591, 12.2092, 0.8104, -11.0177, 10.052, -4.9236, -11.0177, 11.4385, 0.8104, -11.0177, 12.6216, 1.9174, -6.1591, 14.9106, 4.2341, -6.1591, 10.052, 4.2341, -6.1591, 14.9106, -4.9236, -11.0177, 13.3135, -4.9764, -11.0177, 10.052, -4.9236, -11.0177, 10.052, -4.9236, -6.1591, 10.052, -6.5785, -11.0177, 10.052, -6.5785, -6.1591, 14.9106, -4.9236, -6.1591, 10.052, -6.5785, -6.1591, 14.9106, -6.5785, -6.1591, 14.9106, -4.9236, -11.0177, 14.9106, -6.5785, -6.1591, 14.9106, -6.5785, -11.0177, 12.6216, 1.9174, -6.1591, 12.6216, 0.0479, -4.415, 12.6216, 0.0479, -6.1591, 10.6216, 0.0479, -6.1591, 10.6216, 1.9174, -4.415, 10.6216, 1.9174, -6.1591, 14.9106, 4.2341, -11.0177, 12.2092, 1.5811, -11.0177, 10.052, 4.2341, -11.0177, 4.415, 0.0665, -4.415, 4.415, 4.2137, -4.415, 4.415, 1.9174, -1.0594, 4.415, 0.0665, -1.0594, 4.415, 0.0665, -4.415, 4.415, 1.9174, -1.0594, 4.415, 0.0665, 4.415, 4.415, 0.0665, 0.9406, 4.415, 1.9174, 0.9406, 4.415, 4.2137, 4.415, 4.415, 0.0665, 4.415, 4.415, 1.9174, 0.9406, 4.415, 1.9174, -1.0594, 4.415, 4.2137, -4.415, 4.415, 1.9174, 0.9406, -4.415, 4.2137, 4.415, -4.415, 0.0665, 4.415, 4.415, 4.2137, 4.415, -4.415, 0.0665, -4.415, -4.415, 0.0665, 4.415, -4.415, 4.2137, -4.415, -4.415, 0.0665, -4.415, -4.415, 4.2137, -4.415, 4.415, 0.0665, -4.415, 18.8569, 4.2137, 4.415, 18.8569, 3.406, 4.415, 18.8569, 4.2137, -4.415, 10.0268, 4.2137, 4.415, 10.0268, 0.0665, 4.415, 12.9702, 4.2137, 4.415, 10.0268, 0.0665, 4.415, 10.0268, 4.2137, 4.415, 10.0268, 1.9174, 0.9406, 10.0268, 0.0665, 0.9406, 10.0268, 0.0665, 4.415, 10.0268, 1.9174, 0.9406, 10.0268, 0.0665, -4.415, 10.0268, 0.0665, -1.0594, 10.0268, 1.9174, -1.0594, 10.0268, 4.2137, -4.415, 10.0268, 0.0665, -4.415, 10.0268, 1.9174, -1.0594, 10.0268, 1.9174, 0.9406, 10.0268, 4.2137, 4.415, 10.0268, 4.2137, -4.415, 10.0268, 0.0665, -4.415, 10.0268, 4.2137, -4.415, 10.6216, 1.9174, -4.415, 10.6216, 0.0479, -4.415, 10.0268, 0.0665, -4.415, 10.6216, 1.9174, -4.415, 12.9702, 0.0665, -4.415, 12.6216, 0.0479, -4.415, 12.6216, 1.9174, -4.415, 12.9702, 4.2137, -4.415, 12.9702, 0.0665, -4.415, 12.6216, 1.9174, -4.415, 10.6216, 1.9174, -4.415, 10.0268, 4.2137, -4.415, 12.9702, 4.2137, -4.415, 15.9135, 1.7643, -4.415, 15.9135, 4.2137, -4.415, 18.8569, 3.406, -4.415, 12.9702, 0.0665, -4.415, 12.9702, 4.2137, -4.415, 15.9135, 1.7643, -4.415, 15.9135, 1.7643, 4.415, 18.8569, 3.406, 4.415, 15.9135, 4.2137, 4.415, 12.9702, 0.0665, 4.415, 15.9135, 1.7643, 4.415, 12.9702, 4.2137, 4.415, 15.9135, -1.6121, -4.415, 15.9135, 1.7643, -4.415, 15.9135, -1.6121, 4.415, 10.0268, 1.9174, -1.0594, 10.0268, 0.0665, -1.0594, 4.415, 1.9174, -1.0594, 10.0268, 0.0665, 0.9406, 10.0268, 1.9174, 0.9406, 4.415, 0.0665, 0.9406, 14.9106, 4.2341, -6.1591, 14.9106, -4.9236, -6.1591, 14.9106, 4.2341, -11.0177, 14.9106, -4.9236, -6.1591, 14.9106, 4.2341, -6.1591, 12.6216, 0.0479, -6.1591, 10.052, -4.9236, -6.1591, 14.9106, -4.9236, -6.1591, 12.6216, 0.0479, -6.1591, 10.052, 4.2341, -6.1591, 10.052, -4.9236, -6.1591, 10.6216, 0.0479, -6.1591, 10.6216, 1.9174, -6.1591, 10.052, 4.2341, -6.1591, 10.6216, 0.0479, -6.1591, 10.052, 4.2341, -11.0177, 10.052, -4.9236, -11.0177, 10.052, 4.2341, -6.1591, 14.9106, -4.9236, -11.0177, 10.052, -4.9236, -11.0177, 12.2092, 0.8104, -11.0177, 14.9106, 4.2341, -11.0177, 14.9106, -4.9236, -11.0177, 12.2092, 0.8104, -11.0177, 12.2092, 1.5811, -11.0177, 14.9106, 4.2341, -11.0177, 12.2092, 0.8104, -11.0177, 10.052, 4.2341, -11.0177, 11.4385, 0.8104, -11.0177, 10.052, -4.9236, -11.0177, 12.6216, 0.0479, -6.1591, 14.9106, 4.2341, -6.1591, 12.6216, 1.9174, -6.1591, 10.6216, 1.9174, -6.1591, 12.6216, 1.9174, -6.1591, 10.052, 4.2341, -6.1591, 10.052, -6.5785, -11.0177, 10.052, -4.9236, -11.0177, 10.3342, -4.9764, -11.0177, 10.3342, -6.5785, -11.0177, 10.052, -6.5785, -11.0177, 10.3342, -4.9764, -11.0177, 14.9106, -6.5785, -11.0177, 13.3135, -6.5785, -11.0177, 13.3135, -4.9764, -11.0177, 14.9106, -4.9236, -11.0177, 14.9106, -6.5785, -11.0177, 13.3135, -4.9764, -11.0177, 10.3342, -4.9764, -11.0177, 10.052, -4.9236, -11.0177, 13.3135, -4.9764, -11.0177, 10.052, -4.9236, -11.0177, 10.052, -6.5785, -11.0177, 10.052, -4.9236, -6.1591, 10.052, -4.9236, -6.1591, 10.052, -6.5785, -6.1591, 14.9106, -4.9236, -6.1591, 14.9106, -4.9236, -6.1591, 14.9106, -6.5785, -6.1591, 14.9106, -4.9236, -11.0177, 12.6216, 1.9174, -4.415, 12.6216, 0.0479, -4.415, 12.6216, 1.9174, -6.1591, 10.6216, 0.0479, -4.415, 10.6216, 1.9174, -4.415, 10.6216, 0.0479, -6.1591, 11.4385, 0.8104, -11.0177, 10.052, 4.2341, -11.0177, 11.4385, 1.5811, -11.0177, 12.2092, 1.5811, -11.0177, 11.4385, 1.5811, -11.0177, 10.052, 4.2341, -11.0177 )

[node name="Level" type="Navigation"]

[node name="MeshInstance" type="MeshInstance" parent="."]
mesh = ExtResource( 2 )
skeleton = NodePath("")
material/0 = SubResource( 3 )
material/1 = SubResource( 2 )
material/2 = SubResource( 5 )
material/3 = SubResource( 4 )

[node name="StaticBody" type="StaticBody" parent="MeshInstance"]
collision_layer = 6
collision_mask = 6

[node name="CollisionShape" type="CollisionShape" parent="MeshInstance/StaticBody"]
shape = SubResource( 6 )
