# Blender v2.79 (sub 0) OBJ File: 'LevelOne1.blend'
# www.blender.org
mtllib platform.mtl
o Platform
v 2.494115 0.048618 -2.271758
v 2.494115 0.048618 2.586838
v -2.364482 0.048618 -2.271758
v -2.364482 0.048618 2.586838
v -2.082297 0.048618 -2.271758
v 0.897002 0.048618 -2.271758
v 2.494115 -0.077382 -2.271758
v 2.494115 -0.077382 2.586838
v -2.364482 -0.077382 -2.271758
v -2.364482 -0.077382 2.586838
v -2.082297 -0.077382 -2.271758
v 0.897002 -0.077382 -2.271758
vt -2.5999 3.7573
vt -3.0073 3.7573
vt -3.0073 -3.2573
vt -3.0073 -3.2573
vt -2.5999 3.7573
vt 1.7015 3.5871
vt 4.0073 -3.2573
vt 4.0073 3.7573
vt 4.0073 3.7573
vt 4.0073 -3.2573
vt 1.7015 3.5871
vt -3.0073 3.7573
vn 0.0000 1.0000 0.0000
vn 0.0000 -1.0000 0.0000
vn 1.0000 0.0000 0.0000
vn 0.0000 0.0000 1.0000
vn -1.0000 0.0000 0.0000
vn 0.0000 0.0000 -1.0000
usemtl Material
s off
f 5/1/1 3/2/1 4/3/1
f 10/4/2 11/5/2 12/6/2
f 2/7/3 7/8/3 1/9/3
f 4/3/4 8/10/4 2/7/4
f 3/2/5 10/4/5 4/3/5
f 6/11/6 11/5/6 5/1/6
f 5/1/6 9/12/6 3/2/6
f 1/9/6 12/6/6 6/11/6
f 4/3/1 2/7/1 6/11/1
f 2/7/1 1/9/1 6/11/1
f 6/11/1 5/1/1 4/3/1
f 7/8/2 8/10/2 12/6/2
f 8/10/2 10/4/2 12/6/2
f 10/4/2 9/12/2 11/5/2
f 2/7/3 8/10/3 7/8/3
f 4/3/4 10/4/4 8/10/4
f 3/2/5 9/12/5 10/4/5
f 6/11/6 12/6/6 11/5/6
f 5/1/6 11/5/6 9/12/6
f 1/9/6 7/8/6 12/6/6
