[gd_resource type="ShaderMaterial" load_steps=3 format=2]

[ext_resource path="res://shaders/shader1.shader" type="Shader" id=1]
[ext_resource path="res://models/charactermodels/player/torso.png" type="Texture" id=2]

[resource]
shader = ExtResource( 1 )
shader_param/albedo = Color( 1, 1, 1, 1 )
shader_param/texture_albedo = ExtResource( 2 )
